BCD-2-7seg/simulation/qsim/BCD_2_7seg.msim.vcd
$comment
	File created using the following command:
		vcd file BCD_2_7seg.msim.vcd -direction
$end
$date
	Thu Nov  9 09:34:57 2023
$end
$version
	ModelSim Version 2020.1
$end
$timescale
	1ps
$end

$scope module BCD_2_7seg_vlg_vec_tst $end
$var reg 1 ! S_in $end
$var reg 1 " T_in $end
$var reg 1 # U_in $end
$var reg 1 $ V_in $end
$var reg 1 % W_in $end
$var reg 1 & X_in $end
$var reg 1 ' Y_in $end
$var reg 1 ( Z_in $end
$var wire 1 ) A_out $end
$var wire 1 * A_out2 $end
$var wire 1 + B_out $end
$var wire 1 , B_out2 $end
$var wire 1 - C_out $end
$var wire 1 . C_out2 $end
$var wire 1 / D_out $end
$var wire 1 0 D_out2 $end
$var wire 1 1 E_out $end
$var wire 1 2 E_out2 $end
$var wire 1 3 F_out $end
$var wire 1 4 F_out2 $end
$var wire 1 5 G_out $end
$var wire 1 6 G_out2 $end

$scope module i1 $end
$var wire 1 7 gnd $end
$var wire 1 8 vcc $end
$var wire 1 9 unknown $end
$var tri1 1 : devclrn $end
$var tri1 1 ; devpor $end
$var tri1 1 < devoe $end
$var wire 1 = Y_in~combout $end
$var wire 1 > W_in~combout $end
$var wire 1 ? Z_in~combout $end
$var wire 1 @ X_in~combout $end
$var wire 1 A inst~0_combout $end
$var wire 1 B inst7~combout $end
$var wire 1 C inst11~combout $end
$var wire 1 D inst14~0_combout $end
$var wire 1 E inst20~0_combout $end
$var wire 1 F inst25~0_combout $end
$var wire 1 G inst32~0_combout $end
$var wire 1 H T_in~combout $end
$var wire 1 I U_in~combout $end
$var wire 1 J V_in~combout $end
$var wire 1 K S_in~combout $end
$var wire 1 L inst42~0_combout $end
$var wire 1 M inst10~combout $end
$var wire 1 N inst19~combout $end
$var wire 1 O inst31~0_combout $end
$var wire 1 P inst41~0_combout $end
$var wire 1 Q inst46~0_combout $end
$var wire 1 R inst52~0_combout $end
$upscope $end
$upscope $end
$enddefinitions $end
#0
$dumpvars
0!
0"
0#
0$
0%
0&
0'
0(
1)
1*
1+
1,
1-
1.
1/
10
11
12
13
14
05
06
07
18
x9
1:
1;
1<
0=
0>
0?
0@
1A
1B
1C
1D
1E
1F
0G
0H
0I
0J
0K
1L
1M
1N
1O
1P
1Q
0R
$end
#20000
1(
1$
1?
1J
0F
0E
0D
0A
0Q
0P
0O
0L
03
01
0/
0)
04
02
00
0*
#40000
1'
1#
0(
0$
1=
1I
0?
0J
1G
1E
1D
0C
1A
1R
1P
1O
0N
1L
15
11
1/
0-
1)
16
12
10
0.
1*
#60000
1(
1$
1?
1J
0E
1C
0P
1N
01
1-
02
1.
#80000
1&
1"
0'
0#
0(
0$
1@
1H
0=
0I
0?
0J
1F
0D
0A
1Q
0O
0L
13
0/
0)
14
00
0*
#100000
1(
1$
1?
1J
1D
0B
1A
1O
0M
1L
1/
0+
1)
10
0,
1*
#120000
1'
1#
0(
0$
1=
1I
0?
0J
1E
1P
11
12
#140000
1(
1$
1?
1J
0G
0F
0E
0D
1B
0R
0Q
0P
0O
1M
05
03
01
0/
1+
06
04
02
00
1,
#160000
1%
1!
0&
0"
0'
0#
0(
0$
1>
1K
0@
0H
0=
0I
0?
0J
1G
1F
1D
1R
1Q
1O
1E
1P
15
13
1/
16
14
10
11
12
#180000
1(
1$
1?
1J
0E
0P
01
02
#200000
1'
1#
0(
0$
1=
1I
0?
0J
0F
1E
0Q
1P
03
11
04
12
#220000
1(
1$
1?
1J
0E
0P
01
02
#240000
1&
1"
0'
0#
0(
0$
1@
1H
0=
0I
0?
0J
1F
1Q
13
14
#260000
1(
1$
1?
1J
0B
0M
0+
0,
#280000
1'
1#
0(
0$
1=
1I
0?
0J
1E
1P
11
12
#300000
1(
1$
1?
1J
0F
0E
1B
0Q
0P
1M
03
01
1+
04
02
1,
#320000
0%
0!
0&
0"
0'
0#
0(
0$
0>
0K
0@
0H
0=
0I
0?
0J
0G
1F
0R
1Q
1E
1P
05
13
06
14
11
12
#340000
1(
1$
1?
1J
0F
0E
0D
0A
0Q
0P
0O
0L
03
01
0/
0)
04
02
00
0*
#360000
1'
1#
0(
0$
1=
1I
0?
0J
1G
1E
1D
0C
1A
1R
1P
1O
0N
1L
15
11
1/
0-
1)
16
12
10
0.
1*
#380000
1(
1$
1?
1J
0E
1C
0P
1N
01
1-
02
1.
#400000
1&
1"
0'
0#
0(
0$
1@
1H
0=
0I
0?
0J
1F
0D
0A
1Q
0O
0L
13
0/
0)
14
00
0*
#420000
1(
1$
1?
1J
1D
0B
1A
1O
0M
1L
1/
0+
1)
10
0,
1*
#440000
1'
1#
0(
0$
1=
1I
0?
0J
1E
1P
11
12
#460000
1(
1$
1?
1J
0G
0F
0E
0D
1B
0R
0Q
0P
0O
1M
05
03
01
0/
1+
06
04
02
00
1,
#480000
1%
1!
0&
0"
0'
0#
0(
0$
1>
1K
0@
0H
0=
0I
0?
0J
1G
1F
1D
1R
1Q
1O
1E
1P
15
13
1/
16
14
10
11
12
#500000
1(
1$
1?
1J
0E
0P
01
02
#520000
1'
1#
0(
0$
1=
1I
0?
0J
0F
1E
0Q
1P
03
11
04
12
#540000
1(
1$
1?
1J
0E
0P
01
02
#560000
1&
1"
0'
0#
0(
0$
1@
1H
0=
0I
0?
0J
1F
1Q
13
14
#580000
1(
1$
1?
1J
0B
0M
0+
0,
#600000
1'
1#
0(
0$
1=
1I
0?
0J
1E
1P
11
12
#620000
1(
1$
1?
1J
0F
0E
1B
0Q
0P
1M
03
01
1+
04
02
1,
#640000
0%
0!
0&
0"
0'
0#
0(
0$
0>
0K
0@
0H
0=
0I
0?
0J
0G
1F
0R
1Q
1E
1P
05
13
06
14
11
12
#660000
1(
1$
1?
1J
0F
0E
0D
0A
0Q
0P
0O
0L
03
01
0/
0)
04
02
00
0*
#680000
1'
1#
0(
0$
1=
1I
0?
0J
1G
1E
1D
0C
1A
1R
1P
1O
0N
1L
15
11
1/
0-
1)
16
12
10
0.
1*
#700000
1(
1$
1?
1J
0E
1C
0P
1N
01
1-
02
1.
#720000
1&
1"
0'
0#
0(
0$
1@
1H
0=
0I
0?
0J
1F
0D
0A
1Q
0O
0L
13
0/
0)
14
00
0*
#740000
1(
1$
1?
1J
1D
0B
1A
1O
0M
1L
1/
0+
1)
10
0,
1*
#760000
1'
1#
0(
0$
1=
1I
0?
0J
1E
1P
11
12
#780000
1(
1$
1?
1J
0G
0F
0E
0D
1B
0R
0Q
0P
0O
1M
05
03
01
0/
1+
06
04
02
00
1,
#800000
1%
1!
0&
0"
0'
0#
0(
0$
1>
1K
0@
0H
0=
0I
0?
0J
1G
1F
1D
1R
1Q
1O
1E
1P
15
13
1/
16
14
10
11
12
#820000
1(
1$
1?
1J
0E
0P
01
02
#840000
1'
1#
0(
0$
1=
1I
0?
0J
0F
1E
0Q
1P
03
11
04
12
#860000
1(
1$
1?
1J
0E
0P
01
02
#880000
1&
1"
0'
0#
0(
0$
1@
1H
0=
0I
0?
0J
1F
1Q
13
14
#900000
1(
1$
1?
1J
0B
0M
0+
0,
#920000
1'
1#
0(
0$
1=
1I
0?
0J
1E
1P
11
12
#940000
1(
1$
1?
1J
0F
0E
1B
0Q
0P
1M
03
01
1+
04
02
1,
#960000
0%
0!
0&
0"
0'
0#
0(
0$
0>
0K
0@
0H
0=
0I
0?
0J
0G
1F
0R
1Q
1E
1P
05
13
06
14
11
12
#980000
1(
1$
1?
1J
0F
0E
0D
0A
0Q
0P
0O
0L
03
01
0/
0)
04
02
00
0*
