BCD-2-7seg/simulation/qsim/BCD_2_7seg.msim.vcd
$comment
	File created using the following command:
		vcd file BCD_2_7seg.msim.vcd -direction
$end
$date
	Fri Dec  1 15:23:43 2023
$end
$version
	ModelSim Version 2020.1
$end
$timescale
	1ps
$end

$scope module BCD_2_7seg_vlg_vec_tst $end
$var reg 1 ! S $end
$var reg 1 " T $end
$var reg 1 # U $end
$var reg 1 $ V $end
$var reg 1 % W $end
$var reg 1 & X $end
$var reg 1 ' Y $end
$var reg 1 ( Z $end
$var wire 1 ) A_out $end
$var wire 1 * A_out2 $end
$var wire 1 + B_out $end
$var wire 1 , B_out2 $end
$var wire 1 - C_out $end
$var wire 1 . C_out2 $end
$var wire 1 / D_out $end
$var wire 1 0 D_out2 $end
$var wire 1 1 E_out $end
$var wire 1 2 E_out2 $end
$var wire 1 3 F_out $end
$var wire 1 4 F_out2 $end
$var wire 1 5 G_out $end
$var wire 1 6 G_out2 $end

$scope module i1 $end
$var wire 1 7 gnd $end
$var wire 1 8 vcc $end
$var wire 1 9 unknown $end
$var tri1 1 : devclrn $end
$var tri1 1 ; devpor $end
$var tri1 1 < devoe $end
$var wire 1 = Y~combout $end
$var wire 1 > W~combout $end
$var wire 1 ? Z~combout $end
$var wire 1 @ X~combout $end
$var wire 1 A inst25~0_combout $end
$var wire 1 B inst21~combout $end
$var wire 1 C inst26~combout $end
$var wire 1 D inst38~0_combout $end
$var wire 1 E inst42~0_combout $end
$var wire 1 F inst46~0_combout $end
$var wire 1 G inst52~0_combout $end
$var wire 1 H T~combout $end
$var wire 1 I U~combout $end
$var wire 1 J V~combout $end
$var wire 1 K S~combout $end
$var wire 1 L inst58~0_combout $end
$var wire 1 M inst61~combout $end
$var wire 1 N inst64~combout $end
$var wire 1 O inst66~0_combout $end
$var wire 1 P inst70~0_combout $end
$var wire 1 Q inst74~0_combout $end
$var wire 1 R inst80~0_combout $end
$upscope $end
$upscope $end
$enddefinitions $end
#0
$dumpvars
x!
x"
x#
x$
0%
0&
0'
0(
0)
x*
0+
x,
0-
x.
0/
x0
01
x2
03
x4
15
x6
07
18
x9
1:
1;
1<
0=
0>
0?
0@
1A
1B
1C
1D
1E
1F
0G
xH
xI
xJ
xK
xL
xM
xN
xO
xP
xQ
xR
$end
#10000
1(
1?
0F
0E
0D
0A
1)
1/
11
13
#20000
1'
0(
1=
0?
1G
1E
1D
0C
1A
0)
1-
0/
01
05
#30000
1(
1?
0E
1C
0-
11
#40000
1&
0'
0(
1@
0=
0?
1F
0D
0A
1)
1/
03
#50000
1(
1?
1D
0B
1A
0)
1+
0/
#60000
1'
0(
1=
0?
1E
01
#70000
1(
1?
0G
0F
0E
0D
1B
0+
1/
11
13
15
#80000
1%
0&
0'
0(
1>
0@
0=
0?
1G
1F
1D
1E
01
0/
03
05
#90000
1(
1?
0E
11
#100000
1'
0(
1=
0?
0F
1E
01
13
#110000
1(
1?
0E
11
#120000
1&
0'
0(
1@
0=
0?
1F
03
#130000
1(
1?
0B
1+
#140000
1'
0(
1=
0?
1E
01
#150000
1(
1?
0F
0E
1B
0+
11
13
#160000
0%
0&
0'
0(
0>
0@
0=
0?
0G
1F
1E
01
03
15
#170000
1(
1?
0F
0E
0D
0A
1)
1/
11
13
#180000
1'
0(
1=
0?
1G
1E
1D
0C
1A
0)
1-
0/
01
05
#190000
1(
1?
0E
1C
0-
11
#200000
1&
0'
0(
1@
0=
0?
1F
0D
0A
1)
1/
03
#210000
1(
1?
1D
0B
1A
0)
1+
0/
#220000
1'
0(
1=
0?
1E
01
#230000
1(
1?
0G
0F
0E
0D
1B
0+
1/
11
13
15
#240000
1%
0&
0'
0(
1>
0@
0=
0?
1G
1F
1D
1E
01
0/
03
05
#250000
1(
1?
0E
11
#260000
1'
0(
1=
0?
0F
1E
01
13
#270000
1(
1?
0E
11
#280000
1&
0'
0(
1@
0=
0?
1F
03
#290000
1(
1?
0B
1+
#300000
1'
0(
1=
0?
1E
01
#310000
1(
1?
0F
0E
1B
0+
11
13
#320000
0%
0&
0'
0(
0>
0@
0=
0?
0G
1F
1E
01
03
15
#330000
1(
1?
0F
0E
0D
0A
1)
1/
11
13
#340000
1'
0(
1=
0?
1G
1E
1D
0C
1A
0)
1-
0/
01
05
#350000
1(
1?
0E
1C
0-
11
#360000
1&
0'
0(
1@
0=
0?
1F
0D
0A
1)
1/
03
#370000
1(
1?
1D
0B
1A
0)
1+
0/
#380000
1'
0(
1=
0?
1E
01
#390000
1(
1?
0G
0F
0E
0D
1B
0+
1/
11
13
15
#400000
1%
0&
0'
0(
1>
0@
0=
0?
1G
1F
1D
1E
01
0/
03
05
#410000
1(
1?
0E
11
#420000
1'
0(
1=
0?
0F
1E
01
13
#430000
1(
1?
0E
11
#440000
1&
0'
0(
1@
0=
0?
1F
03
#450000
1(
1?
0B
1+
#460000
1'
0(
1=
0?
1E
01
#470000
1(
1?
0F
0E
1B
0+
11
13
#480000
0%
0&
0'
0(
0>
0@
0=
0?
0G
1F
1E
01
03
15
#490000
1(
1?
0F
0E
0D
0A
1)
1/
11
13
#500000
1'
0(
1=
0?
1G
1E
1D
0C
1A
0)
1-
0/
01
05
#510000
1(
1?
0E
1C
0-
11
#520000
1&
0'
0(
1@
0=
0?
1F
0D
0A
1)
1/
03
#530000
1(
1?
1D
0B
1A
0)
1+
0/
#540000
1'
0(
1=
0?
1E
01
#550000
1(
1?
0G
0F
0E
0D
1B
0+
1/
11
13
15
#560000
1%
0&
0'
0(
1>
0@
0=
0?
1G
1F
1D
1E
01
0/
03
05
#570000
1(
1?
0E
11
#580000
1'
0(
1=
0?
0F
1E
01
13
#590000
1(
1?
0E
11
#600000
1&
0'
0(
1@
0=
0?
1F
03
#610000
1(
1?
0B
1+
#620000
1'
0(
1=
0?
1E
01
#630000
1(
1?
0F
0E
1B
0+
11
13
#640000
0%
0&
0'
0(
0>
0@
0=
0?
0G
1F
1E
01
03
15
#650000
1(
1?
0F
0E
0D
0A
1)
1/
11
13
#660000
1'
0(
1=
0?
1G
1E
1D
0C
1A
0)
1-
0/
01
05
#670000
1(
1?
0E
1C
0-
11
#680000
1&
0'
0(
1@
0=
0?
1F
0D
0A
1)
1/
03
#690000
1(
1?
1D
0B
1A
0)
1+
0/
#700000
1'
0(
1=
0?
1E
01
#710000
1(
1?
0G
0F
0E
0D
1B
0+
1/
11
13
15
#720000
1%
0&
0'
0(
1>
0@
0=
0?
1G
1F
1D
1E
01
0/
03
05
#730000
1(
1?
0E
11
#740000
1'
0(
1=
0?
0F
1E
01
13
#750000
1(
1?
0E
11
#760000
1&
0'
0(
1@
0=
0?
1F
03
#770000
1(
1?
0B
1+
#780000
1'
0(
1=
0?
1E
01
#790000
1(
1?
0F
0E
1B
0+
11
13
#800000
0%
0&
0'
0(
0>
0@
0=
0?
0G
1F
1E
01
03
15
#810000
1(
1?
0F
0E
0D
0A
1)
1/
11
13
#820000
1'
0(
1=
0?
1G
1E
1D
0C
1A
0)
1-
0/
01
05
#830000
1(
1?
0E
1C
0-
11
#840000
1&
0'
0(
1@
0=
0?
1F
0D
0A
1)
1/
03
#850000
1(
1?
1D
0B
1A
0)
1+
0/
#860000
1'
0(
1=
0?
1E
01
#870000
1(
1?
0G
0F
0E
0D
1B
0+
1/
11
13
15
#880000
1%
0&
0'
0(
1>
0@
0=
0?
1G
1F
1D
1E
01
0/
03
05
#890000
1(
1?
0E
11
#900000
1'
0(
1=
0?
0F
1E
01
13
#910000
1(
1?
0E
11
#920000
1&
0'
0(
1@
0=
0?
1F
03
#930000
1(
1?
0B
1+
#940000
1'
0(
1=
0?
1E
01
#950000
1(
1?
0F
0E
1B
0+
11
13
#960000
0%
0&
0'
0(
0>
0@
0=
0?
0G
1F
1E
01
03
15
#970000
1(
1?
0F
0E
0D
0A
1)
1/
11
13
#980000
1'
0(
1=
0?
1G
1E
1D
0C
1A
0)
1-
0/
01
05
#990000
1(
1?
0E
1C
0-
11
