ShiftRegister/simulation/qsim/ShiftRegister.msim.vcd
$comment
	File created using the following command:
		vcd file ShiftRegister.msim.vcd -direction
$end
$date
	Mon Nov 27 15:54:50 2023
$end
$version
	ModelSim Version 2020.1
$end
$timescale
	1ps
$end

$scope module ShiftRegister_vlg_vec_tst $end
$var reg 1 ! Clock $end
$var reg 1 " Reset $end
$var reg 1 # Serial $end
$var wire 1 $ pin_name1 $end
$var wire 1 % pin_name2 $end
$var wire 1 & pin_name3 $end
$var wire 1 ' pin_name4 $end
$var wire 1 ( pin_name5 $end
$var wire 1 ) pin_name6 $end
$var wire 1 * pin_name7 $end
$var wire 1 + pin_name9 $end

$scope module i1 $end
$var wire 1 , gnd $end
$var wire 1 - vcc $end
$var wire 1 . unknown $end
$var tri1 1 / devclrn $end
$var tri1 1 0 devpor $end
$var tri1 1 1 devoe $end
$var wire 1 2 Clock~combout $end
$var wire 1 3 Serial~combout $end
$var wire 1 4 Reset~combout $end
$var wire 1 5 inst17~regout $end
$var wire 1 6 inst8~regout $end
$var wire 1 7 inst18~regout $end
$var wire 1 8 inst19~regout $end
$var wire 1 9 inst20~regout $end
$var wire 1 : inst21~regout $end
$var wire 1 ; inst22~regout $end
$var wire 1 < inst23~regout $end
$upscope $end
$upscope $end
$enddefinitions $end
#0
$dumpvars
0!
0"
1#
0$
0%
0&
0'
0(
0)
0*
0+
0,
1-
x.
1/
10
11
02
13
04
05
06
07
08
09
0:
0;
0<
$end
#20000
1!
12
15
1%
#40000
0!
02
#60000
1!
12
16
1&
#80000
0!
02
#100000
1!
12
17
1'
#120000
0!
02
#140000
1!
12
18
1(
#160000
0#
0!
03
02
#180000
1!
12
19
05
1)
0%
#200000
0!
02
#220000
1!
12
1:
06
1*
0&
#240000
1#
0!
13
02
#260000
1!
12
1;
07
15
1+
0'
1%
#280000
0!
02
#300000
1!
12
1<
08
16
1$
0(
1&
#320000
0#
0!
03
02
#340000
1!
12
09
17
05
0)
1'
0%
#360000
0!
02
#380000
1!
12
0:
18
06
0*
1(
0&
#400000
1#
0!
13
02
#420000
1!
12
0;
19
07
15
0+
1)
0'
1%
#440000
0!
02
#460000
1!
12
0<
1:
08
16
0$
1*
0(
1&
#480000
0!
02
#500000
1!
12
1;
09
17
1+
0)
1'
#520000
0!
02
#540000
1!
12
1<
0:
18
1$
0*
1(
#560000
0#
0!
03
02
#580000
1!
12
0;
19
05
0+
1)
0%
#600000
0!
02
#620000
1!
12
0<
1:
06
0$
1*
0&
#640000
0!
02
#660000
1!
12
1;
07
1+
0'
#680000
0!
02
#700000
1!
12
1<
08
1$
0(
#720000
1#
0!
13
02
#740000
1!
12
09
15
0)
1%
#760000
0!
02
#780000
1!
12
0:
16
0*
1&
#800000
0#
0!
03
02
#820000
1!
12
0;
17
05
0+
1'
0%
#840000
0!
02
#860000
1!
12
0<
18
06
0$
1(
0&
#880000
1#
0!
13
02
#900000
1!
12
19
07
15
1)
0'
1%
#920000
0!
02
#940000
1!
12
1:
08
16
1*
0(
1&
#960000
0#
0!
03
02
#980000
1!
12
1;
09
17
05
1+
0)
1'
0%
