ShiftRegister/simulation/qsim/ShiftRegister.msim.vcd
$comment
	File created using the following command:
		vcd file ShiftRegister.msim.vcd -direction
$end
$date
	Mon Nov 27 11:05:31 2023
$end
$version
	ModelSim Version 2020.1
$end
$timescale
	1ps
$end

$scope module ShiftRegister_vlg_vec_tst $end
$var reg 1 ! Clock $end
$var reg 1 " Reset $end
$var reg 1 # Select $end
$var reg 1 $ Serial $end
$var wire 1 % pin_name1 $end
$var wire 1 & pin_name2 $end
$var wire 1 ' pin_name3 $end
$var wire 1 ( pin_name4 $end
$var wire 1 ) pin_name5 $end
$var wire 1 * pin_name6 $end
$var wire 1 + pin_name7 $end
$var wire 1 , pin_name8 $end
$var wire 1 - pin_name9 $end
$var wire 1 . S $end
$var wire 1 / T $end
$var wire 1 0 U $end
$var wire 1 1 V $end
$var wire 1 2 W $end
$var wire 1 3 X $end
$var wire 1 4 Y $end
$var wire 1 5 Z $end

$scope module i1 $end
$var wire 1 6 gnd $end
$var wire 1 7 vcc $end
$var wire 1 8 unknown $end
$var tri1 1 9 devclrn $end
$var tri1 1 : devpor $end
$var tri1 1 ; devoe $end
$var wire 1 < Select~combout $end
$var wire 1 = Clock~combout $end
$var wire 1 > Serial~combout $end
$var wire 1 ? Reset~combout $end
$var wire 1 @ inst17~regout $end
$var wire 1 A inst900~regout $end
$var wire 1 B inst8~regout $end
$var wire 1 C inst24~regout $end
$var wire 1 D inst18~regout $end
$var wire 1 E inst25~regout $end
$var wire 1 F inst19~regout $end
$var wire 1 G inst26~regout $end
$var wire 1 H inst20~regout $end
$var wire 1 I inst27~regout $end
$var wire 1 J inst21~regout $end
$var wire 1 K inst28~regout $end
$var wire 1 L inst22~regout $end
$var wire 1 M inst29~regout $end
$var wire 1 N inst23~regout $end
$var wire 1 O inst30~regout $end
$upscope $end
$upscope $end
$enddefinitions $end
#0
$dumpvars
0!
1"
0#
0$
0%
0&
0'
0(
0)
0*
0+
0,
0-
0.
0/
00
01
02
03
04
05
06
17
x8
19
1:
1;
0<
0=
0>
1?
0@
0A
0B
0C
0D
0E
0F
0G
0H
0I
0J
0K
0L
0M
0N
0O
$end
#1000
0"
0?
#20000
1!
1$
1=
1>
#40000
0!
0$
0=
0>
#60000
1!
1=
#80000
1$
0!
1>
0=
#100000
1!
1=
1@
1&
1%
#120000
0$
0!
0>
0=
#140000
1!
1=
1B
0@
1'
0&
0%
#160000
1$
0!
1>
0=
#180000
0$
1!
0>
1=
1D
0B
1@
1(
0'
1&
1%
#200000
0!
0=
#220000
1$
1!
1>
1=
1F
0D
1B
0@
1)
0(
1'
0&
0%
#240000
0$
0!
0>
0=
#260000
1$
1!
1>
1=
1H
0F
1D
0B
1*
0)
1(
0'
#280000
0!
0=
#300000
0$
1!
0>
1=
1J
0H
1F
0D
1@
0*
1)
0(
1&
1%
#320000
0!
0=
#340000
1$
1!
1>
1=
1L
0J
1H
0F
1B
0@
1,
1*
0)
1'
0&
0%
#360000
0!
0=
#380000
1!
1=
1N
0L
1J
0H
1D
0B
1@
0,
0*
1(
0'
1&
1%
#396000
1#
1<
1O
1K
1E
1A
15
13
10
1.
#397000
1"
1?
0N
0J
0D
0@
0(
0&
0%
#400000
0$
0!
0#
0>
0=
0<
#401000
0"
0?
#420000
1$
1!
1>
1=
#440000
0!
0=
#460000
0$
1!
0>
1=
1@
1&
1%
#480000
0!
0=
#500000
1$
1!
1>
1=
1B
0@
1'
0&
0%
#520000
0!
0=
#540000
0$
1!
0>
1=
1D
0B
1@
1(
0'
1&
1%
#560000
0!
0=
#580000
1!
1=
1F
0D
1B
0@
1)
0(
1'
0&
0%
#600000
0!
0=
#620000
1$
1!
1>
1=
1H
0F
1D
0B
1*
0)
1(
0'
#640000
0!
0=
#660000
1!
1=
1J
0H
1F
0D
1@
0*
1)
0(
1&
1%
#680000
0$
0!
0>
0=
#700000
1$
1!
1>
1=
1L
0J
1H
0F
1B
0@
1,
1*
0)
1'
0&
0%
#720000
0!
0=
#740000
0$
1!
0>
1=
1N
0L
1J
0H
1D
0B
1@
0,
0*
1(
0'
1&
1%
#760000
0!
0=
#780000
1$
1!
1>
1=
0N
1L
0J
1F
0D
1B
0@
1,
1)
0(
1'
0&
0%
#796000
1#
1<
0O
1M
0K
1G
0E
1C
0A
05
14
03
11
00
1/
0.
#797000
1"
1?
0L
0F
0B
0,
0)
0'
#800000
0!
0#
0=
0<
#801000
0"
0?
#820000
1!
1=
1@
1&
1%
#840000
0!
0=
#860000
0$
1!
0>
1=
1B
1'
#880000
1$
0!
1>
0=
#900000
0$
1!
0>
1=
1D
1(
#920000
0!
0=
#940000
1$
1!
1>
1=
1F
0@
1)
0&
0%
#960000
0$
0!
0>
0=
#980000
1$
1!
1>
1=
1H
0B
1*
0'
