SimpleAND/simulation/qsim/SimpleAnd.msim.vcd
$comment
	File created using the following command:
		vcd file SimpleAnd.msim.vcd -direction
$end
$date
	Mon Nov  6 12:08:05 2023
$end
$version
	ModelSim Version 2020.1
$end
$timescale
	1ps
$end

$scope module SimpleAnd_vlg_vec_tst $end
$var reg 1 ! pin_name2 $end
$var reg 1 " pin_name3 $end
$var wire 1 # pin_name1 $end

$scope module i1 $end
$var wire 1 $ gnd $end
$var wire 1 % vcc $end
$var wire 1 & unknown $end
$var tri1 1 ' devclrn $end
$var tri1 1 ( devpor $end
$var tri1 1 ) devoe $end
$var wire 1 * pin_name2~combout $end
$var wire 1 + pin_name3~combout $end
$var wire 1 , inst~combout $end
$upscope $end
$upscope $end
$enddefinitions $end
#0
$dumpvars
1!
0"
0#
0$
1%
x&
1'
1(
1)
1*
0+
0,
$end
#10000
1"
1+
1,
1#
#20000
0"
0+
0,
0#
#30000
1"
1+
1,
1#
#40000
0"
0+
0,
0#
#60000
0!
0*
#70000
1"
1+
#90000
1!
0"
1*
0+
#100000
1"
1+
1,
1#
#110000
0!
0*
0,
0#
#130000
0"
1!
0+
1*
#140000
1"
1+
1,
1#
#150000
0"
0+
0,
0#
#160000
0!
1"
0*
1+
#170000
1!
1*
1,
1#
#180000
0"
0!
0+
0*
0,
0#
#200000
1!
1*
#210000
1"
0!
1+
0*
#220000
1!
1*
1,
1#
#230000
0!
0*
0,
0#
#240000
0"
0+
#250000
1!
1*
#260000
0!
0*
#270000
1!
1*
#280000
1"
1+
1,
1#
#310000
0!
0*
0,
0#
#320000
0"
0+
#330000
1!
1*
#340000
1"
1+
1,
1#
#350000
0!
0"
0*
0+
0,
0#
#370000
1"
1+
#380000
1!
0"
1*
0+
#390000
0!
1"
0*
1+
#400000
1!
1*
1,
1#
#410000
0!
0*
0,
0#
#420000
0"
1!
0+
1*
#440000
0!
0*
#450000
1"
1+
#460000
0"
0+
#470000
1!
1"
1*
1+
1,
1#
#480000
0!
0*
0,
0#
#500000
0"
1!
0+
1*
#510000
1"
1+
1,
1#
#520000
0"
0+
0,
0#
#530000
0!
1"
0*
1+
#540000
0"
0+
#550000
1!
1*
#560000
0!
0*
#570000
1"
1!
1+
1*
1,
1#
#590000
0"
0!
0+
0*
0,
0#
#600000
1!
1*
#620000
1"
0!
1+
0*
#630000
0"
1!
0+
1*
#640000
1"
0!
1+
0*
#670000
1!
1*
1,
1#
#690000
0"
0!
0+
0*
0,
0#
#700000
1"
1!
1+
1*
1,
1#
#710000
0!
0*
0,
0#
#720000
1!
1*
1,
1#
#730000
0"
0+
0,
0#
#740000
1"
1+
1,
1#
#760000
0!
0"
0*
0+
0,
0#
#770000
1"
1+
#780000
1!
1*
1,
1#
#800000
0!
0*
0,
0#
#810000
1!
1*
1,
1#
#830000
0"
0+
0,
0#
#860000
0!
0*
#870000
1"
1!
1+
1*
1,
1#
#880000
0"
0!
0+
0*
0,
0#
#890000
1!
1*
#930000
1"
1+
1,
1#
#940000
0!
0*
0,
0#
#950000
0"
0+
#960000
1!
1*
#970000
0!
0*
#980000
1"
1!
1+
1*
1,
1#
#990000
0"
0!
0+
0*
0,
0#
