SevenSegmentDisplay/simulation/qsim/SevenSegmentDisplay.msim.vcd
$comment
	File created using the following command:
		vcd file SevenSegmentDisplay.msim.vcd -direction
$end
$date
	Fri Dec  1 10:44:33 2023
$end
$version
	ModelSim Version 2020.1
$end
$timescale
	1ps
$end

$scope module SevenSegmentDisplay_vlg_vec_tst $end
$var reg 1 ! pin_name1 $end
$var wire 1 " A_out $end
$var wire 1 # A_out2 $end
$var wire 1 $ B_out $end
$var wire 1 % B_out2 $end
$var wire 1 & C_out $end
$var wire 1 ' C_out2 $end
$var wire 1 ( D_out $end
$var wire 1 ) D_out2 $end
$var wire 1 * E_out $end
$var wire 1 + E_out2 $end
$var wire 1 , F_out $end
$var wire 1 - F_out2 $end
$var wire 1 . G_out $end
$var wire 1 / G_out2 $end
$var wire 1 0 pin_name2 $end
$var wire 1 1 pin_name3 $end
$var wire 1 2 pin_name4 $end
$var wire 1 3 pin_name5 $end
$var wire 1 4 pin_name6 $end
$var wire 1 5 pin_name7 $end
$var wire 1 6 pin_name8 $end
$var wire 1 7 pin_name9 $end

$scope module i1 $end
$var wire 1 8 gnd $end
$var wire 1 9 vcc $end
$var wire 1 : unknown $end
$var tri1 1 ; devclrn $end
$var tri1 1 < devpor $end
$var tri1 1 = devoe $end
$var wire 1 > pin_name1~combout $end
$var wire 1 ? inst1|sub|34~regout $end
$var wire 1 @ inst58~combout $end
$var wire 1 A inst1|sub|109~combout $end
$var wire 1 B inst1|sub|111~regout $end
$var wire 1 C inst1|sub|106~combout $end
$var wire 1 D inst1|sub|120~combout $end
$var wire 1 E inst1|sub|122~regout $end
$var wire 1 F inst1|sub|117~combout $end
$var wire 1 G inst1|sub|134~regout $end
$var wire 1 H inst~0_combout $end
$var wire 1 I inst7~combout $end
$var wire 1 J inst11~combout $end
$var wire 1 K inst14~0_combout $end
$var wire 1 L inst20~0_combout $end
$var wire 1 M inst25~0_combout $end
$var wire 1 N inst32~0_combout $end
$var wire 1 O inst6|sub|34~regout $end
$var wire 1 P inst6|sub|74 $end
$var wire 1 Q inst6|sub|74~COUT1_3 $end
$var wire 1 R inst6|sub|111~regout $end
$var wire 1 S inst6|sub|107 $end
$var wire 1 T inst6|sub|107~COUT1_2 $end
$var wire 1 U inst6|sub|118 $end
$var wire 1 V inst6|sub|118~COUT1_2 $end
$var wire 1 W inst6|sub|134~regout $end
$var wire 1 X inst60~1_combout $end
$var wire 1 Y inst6|sub|122~regout $end
$var wire 1 Z inst42~0_combout $end
$var wire 1 [ inst10~combout $end
$var wire 1 \ inst19~combout $end
$var wire 1 ] inst31~0_combout $end
$var wire 1 ^ inst41~0_combout $end
$var wire 1 _ inst46~0_combout $end
$var wire 1 ` inst52~0_combout $end
$upscope $end
$upscope $end
$enddefinitions $end
#0
$dumpvars
0!
1"
1#
1$
1%
1&
1'
1(
1)
1*
1+
1,
1-
0.
0/
00
01
02
03
04
05
06
07
08
19
x:
1;
1<
1=
0>
0?
0@
0A
0B
0C
0D
0E
0F
0G
1H
1I
1J
1K
1L
1M
0N
0O
0P
0Q
0R
1S
1T
0U
0V
0W
0X
0Y
1Z
1[
1\
1]
1^
1_
0`
$end
#10000
1!
1>
1?
1N
1A
14
1.
#20000
0!
0>
#30000
1!
1>
1B
0?
0L
0K
0H
15
04
0*
0(
0"
#40000
0!
0>
#50000
1!
1>
1?
1K
1H
1C
0A
14
1D
1(
1"
#60000
0!
0>
#70000
1!
1>
1E
0B
0?
0M
1L
0J
1F
0D
0C
16
05
04
0F
1D
0,
1*
0&
#80000
0!
0>
#90000
1!
1>
1?
1J
1A
14
1&
#100000
0!
0>
#110000
1!
1>
1B
0?
1M
0I
15
04
1,
0$
#120000
0!
0>
#130000
1!
1>
1?
1C
0A
14
1F
0D
#140000
0!
0>
#150000
1!
1>
1G
0E
0B
0?
0N
0M
0L
0K
1I
0H
0F
1D
0C
17
06
05
04
0D
0.
0,
0*
0(
1$
0"
#160000
0!
0>
#170000
1!
1>
1?
1N
1M
1K
1H
1A
1@
14
1.
1,
1(
1"
1O
1`
1Q
1P
10
1/
#180000
0!
0>
#190000
1!
1>
0G
0?
0N
1L
0@
0A
07
04
0.
1*
#200000
0!
0>
#210000
1!
1>
1?
1N
1A
14
1.
#220000
0!
0>
#230000
1!
1>
1B
0?
0L
0K
0H
15
04
0*
0(
0"
#240000
0!
0>
#250000
1!
1>
1?
1K
1H
1C
0A
14
1D
1(
1"
#260000
0!
0>
#270000
1!
1>
1E
0B
0?
0M
1L
0J
1F
0D
0C
16
05
04
0F
1D
0,
1*
0&
#280000
0!
0>
#290000
1!
1>
1?
1J
1A
14
1&
#300000
0!
0>
#310000
1!
1>
1B
0?
1M
0I
15
04
1,
0$
#320000
0!
0>
#330000
1!
1>
1?
1C
0A
14
1F
0D
#340000
0!
0>
#350000
1!
1>
1G
0E
0B
0?
0N
0M
0L
0K
1I
0H
0F
1D
0C
17
06
05
04
0D
0.
0,
0*
0(
1$
0"
#360000
0!
0>
#370000
1!
1>
1?
1N
1M
1K
1H
1A
1@
14
1.
1,
1(
1"
1R
0O
0^
0]
0Z
0T
0S
0Q
0P
11
00
1T
1S
0+
0)
0#
#380000
0!
0>
#390000
1!
1>
0G
0?
0N
1L
0@
0A
07
04
0.
1*
#400000
0!
0>
#410000
1!
1>
1?
1N
1A
14
1.
#420000
0!
0>
#430000
1!
1>
1B
0?
0L
0K
0H
15
04
0*
0(
0"
#440000
0!
0>
#450000
1!
1>
1?
1K
1H
1C
0A
14
1D
1(
1"
#460000
0!
0>
#470000
1!
1>
1E
0B
0?
0M
1L
0J
1F
0D
0C
16
05
04
0F
1D
0,
1*
0&
#480000
0!
0>
#490000
1!
1>
1?
1J
1A
14
1&
#500000
0!
0>
#510000
1!
1>
1B
0?
1M
0I
15
04
1,
0$
#520000
0!
0>
#530000
1!
1>
1?
1C
0A
14
1F
0D
#540000
0!
0>
#550000
1!
1>
1G
0E
0B
0?
0N
0M
0L
0K
1I
0H
0F
1D
0C
17
06
05
04
0D
0.
0,
0*
0(
1$
0"
#560000
0!
0>
#570000
1!
1>
1?
1N
1M
1K
1H
1A
1@
14
1.
1,
1(
1"
1O
1]
1Z
1Q
1P
10
0T
0S
1)
1#
#580000
0!
0>
#590000
1!
1>
0G
0?
0N
1L
0@
0A
07
04
0.
1*
#600000
0!
0>
#610000
1!
1>
1?
1N
1A
14
1.
#620000
0!
0>
#630000
1!
1>
1B
0?
0L
0K
0H
15
04
0*
0(
0"
#640000
0!
0>
#650000
1!
1>
1?
1K
1H
1C
0A
14
1D
1(
1"
#660000
0!
0>
#670000
1!
1>
1E
0B
0?
0M
1L
0J
1F
0D
0C
16
05
04
0F
1D
0,
1*
0&
#680000
0!
0>
#690000
1!
1>
1?
1J
1A
14
1&
#700000
0!
0>
#710000
1!
1>
1B
0?
1M
0I
15
04
1,
0$
#720000
0!
0>
#730000
1!
1>
1?
1C
0A
14
1F
0D
#740000
0!
0>
#750000
1!
1>
1G
0E
0B
0?
0N
0M
0L
0K
1I
0H
0F
1D
0C
17
06
05
04
0D
0.
0,
0*
0(
1$
0"
#760000
0!
0>
#770000
1!
1>
1?
1N
1M
1K
1H
1A
1@
14
1.
1,
1(
1"
1Y
0R
0O
0_
1^
0\
1V
1U
1T
1S
0Q
0P
12
01
00
0V
0U
0-
1+
0'
#780000
0!
0>
#790000
1!
1>
0G
0?
0N
1L
0@
0A
07
04
0.
1*
#800000
0!
0>
#810000
1!
1>
1?
1N
1A
14
1.
#820000
0!
0>
#830000
1!
1>
1B
0?
0L
0K
0H
15
04
0*
0(
0"
#840000
0!
0>
#850000
1!
1>
1?
1K
1H
1C
0A
14
1D
1(
1"
#860000
0!
0>
#870000
1!
1>
1E
0B
0?
0M
1L
0J
1F
0D
0C
16
05
04
0F
1D
0,
1*
0&
#880000
0!
0>
#890000
1!
1>
1?
1J
1A
14
1&
#900000
0!
0>
#910000
1!
1>
1B
0?
1M
0I
15
04
1,
0$
#920000
0!
0>
#930000
1!
1>
1?
1C
0A
14
1F
0D
#940000
0!
0>
#950000
1!
1>
1G
0E
0B
0?
0N
0M
0L
0K
1I
0H
0F
1D
0C
17
06
05
04
0D
0.
0,
0*
0(
1$
0"
#960000
0!
0>
#970000
1!
1>
1?
1N
1M
1K
1H
1A
1@
14
1.
1,
1(
1"
1O
1\
1Q
1P
10
1'
#980000
0!
0>
#990000
1!
1>
0G
0?
0N
1L
0@
0A
07
04
0.
1*
