CPLD/simulation/qsim/CPLD.msim.vcd
$comment
	File created using the following command:
		vcd file CPLD.msim.vcd -direction
$end
$date
	Mon Nov  6 15:59:03 2023
$end
$version
	ModelSim Version 2020.1
$end
$timescale
	1ps
$end

$scope module CPLD_vlg_vec_tst $end
$var reg 1 ! Clock $end
$var wire 1 " AND1In $end
$var wire 1 # AND1Out $end
$var wire 1 $ AND2In $end
$var wire 1 % AND2Out $end
$var wire 1 & End $end
$var wire 1 ' Q $end
$var wire 1 ( Q_ $end

$scope module i1 $end
$var wire 1 ) gnd $end
$var wire 1 * vcc $end
$var wire 1 + unknown $end
$var tri1 1 , devclrn $end
$var tri1 1 - devpor $end
$var tri1 1 . devoe $end
$var wire 1 / Clock~combout $end
$var wire 1 0 inst4~1_combout $end
$var wire 1 1 inst~combout $end
$var wire 1 2 inst3~combout $end
$var wire 1 3 inst8~combout $end
$var wire 1 4 inst9~1_combout $end
$var wire 1 5 inst10~combout $end
$upscope $end
$upscope $end
$enddefinitions $end
#0
$dumpvars
0!
x"
1#
x$
1%
x&
x'
x(
0)
1*
x+
1,
1-
1.
0/
x0
01
02
x3
x4
x5
$end
#25000
1!
1/
15
13
x2
x1
1&
1'
x%
x#
#50000
0!
0/
x5
x3
02
01
x&
x'
1%
1#
#75000
1!
1/
15
13
x2
x1
1&
1'
x%
x#
#100000
0!
0/
x5
x3
02
01
x&
x'
1%
1#
#125000
1!
1/
15
13
x2
x1
1&
1'
x%
x#
#150000
0!
0/
x5
x3
02
01
x&
x'
1%
1#
#175000
1!
1/
15
13
x2
x1
1&
1'
x%
x#
#200000
0!
0/
x5
x3
02
01
x&
x'
1%
1#
#225000
1!
1/
15
13
x2
x1
1&
1'
x%
x#
#250000
0!
0/
x5
x3
02
01
x&
x'
1%
1#
#275000
1!
1/
15
13
x2
x1
1&
1'
x%
x#
#300000
0!
0/
x5
x3
02
01
x&
x'
1%
1#
#325000
1!
1/
15
13
x2
x1
1&
1'
x%
x#
#350000
0!
0/
x5
x3
02
01
x&
x'
1%
1#
#375000
1!
1/
15
13
x2
x1
1&
1'
x%
x#
#400000
0!
0/
x5
x3
02
01
x&
x'
1%
1#
#425000
1!
1/
15
13
x2
x1
1&
1'
x%
x#
#450000
0!
0/
x5
x3
02
01
x&
x'
1%
1#
#475000
1!
1/
15
13
x2
x1
1&
1'
x%
x#
#500000
0!
0/
x5
x3
02
01
x&
x'
1%
1#
#525000
1!
1/
15
13
x2
x1
1&
1'
x%
x#
#550000
0!
0/
x5
x3
02
01
x&
x'
1%
1#
#575000
1!
1/
15
13
x2
x1
1&
1'
x%
x#
#600000
0!
0/
x5
x3
02
01
x&
x'
1%
1#
#625000
1!
1/
15
13
x2
x1
1&
1'
x%
x#
#650000
0!
0/
x5
x3
02
01
x&
x'
1%
1#
#675000
1!
1/
15
13
x2
x1
1&
1'
x%
x#
#700000
0!
0/
x5
x3
02
01
x&
x'
1%
1#
#725000
1!
1/
15
13
x2
x1
1&
1'
x%
x#
#750000
0!
0/
x5
x3
02
01
x&
x'
1%
1#
#775000
1!
1/
15
13
x2
x1
1&
1'
x%
x#
#800000
0!
0/
x5
x3
02
01
x&
x'
1%
1#
#825000
1!
1/
15
13
x2
x1
1&
1'
x%
x#
#850000
0!
0/
x5
x3
02
01
x&
x'
1%
1#
#875000
1!
1/
15
13
x2
x1
1&
1'
x%
x#
#900000
0!
0/
x5
x3
02
01
x&
x'
1%
1#
#925000
1!
1/
15
13
x2
x1
1&
1'
x%
x#
#950000
0!
0/
x5
x3
02
01
x&
x'
1%
1#
#975000
1!
1/
15
13
x2
x1
1&
1'
x%
x#
