WholeThing/simulation/qsim/WholeThing.msim.vcd
$comment
	File created using the following command:
		vcd file WholeThing.msim.vcd -direction
$end
$date
	Tue Nov 28 23:29:01 2023
$end
$version
	ModelSim Version 2020.1
$end
$timescale
	1ps
$end

$scope module WholeThing_vlg_vec_tst $end
$var reg 1 ! HighFreqClock $end
$var reg 1 " Reset $end
$var reg 1 # Serial $end
$var reg 1 $ ShiftRegisterReset $end
$var wire 1 % A_out $end
$var wire 1 & A_out2 $end
$var wire 1 ' B_out $end
$var wire 1 ( B_out2 $end
$var wire 1 ) BigReset $end
$var wire 1 * C_out $end
$var wire 1 + C_out2 $end
$var wire 1 , CLEAR $end
$var wire 1 - CLOCK $end
$var wire 1 . Count8 $end
$var wire 1 / D_out $end
$var wire 1 0 D_out2 $end
$var wire 1 1 E_out $end
$var wire 1 2 E_out2 $end
$var wire 1 3 F_out $end
$var wire 1 4 F_out2 $end
$var wire 1 5 G_out $end
$var wire 1 6 G_out2 $end
$var wire 1 7 HighAfter10 $end
$var wire 1 8 LowFor4 $end
$var wire 1 9 LowFor4Latched $end
$var wire 1 : S $end
$var wire 1 ; SerialOut $end
$var wire 1 < T $end
$var wire 1 = U $end
$var wire 1 > V $end
$var wire 1 ? W $end
$var wire 1 @ X $end
$var wire 1 A Y $end
$var wire 1 B Z $end

$scope module i1 $end
$var wire 1 C gnd $end
$var wire 1 D vcc $end
$var wire 1 E unknown $end
$var tri1 1 F devclrn $end
$var tri1 1 G devpor $end
$var tri1 1 H devoe $end
$var wire 1 I HighFreqClock~combout $end
$var wire 1 J inst86~regout $end
$var wire 1 K inst87~regout $end
$var wire 1 L Reset~combout $end
$var wire 1 M Serial~combout $end
$var wire 1 N inst37~combout $end
$var wire 1 O inst30|sub|34~regout $end
$var wire 1 P inst30|sub|109~combout $end
$var wire 1 Q inst30|sub|111~regout $end
$var wire 1 R inst30|sub|106~combout $end
$var wire 1 S inst30|sub|120~combout $end
$var wire 1 T inst30|sub|122~regout $end
$var wire 1 U inst30|sub|117~combout $end
$var wire 1 V inst30|sub|134~regout $end
$var wire 1 W inst36~combout $end
$var wire 1 X inst90~combout $end
$var wire 1 Y inst109~combout $end
$var wire 1 Z inst28|sub|34~regout $end
$var wire 1 [ inst28|sub|109~combout $end
$var wire 1 \ inst28|sub|111~regout $end
$var wire 1 ] inst28|sub|106~combout $end
$var wire 1 ^ inst28|sub|122~regout $end
$var wire 1 _ inst24~regout $end
$var wire 1 ` inst31~combout $end
$var wire 1 a inst29|sub|126~1_combout $end
$var wire 1 b inst29|sub|34~regout $end
$var wire 1 c inst29|sub|109~combout $end
$var wire 1 d inst29|sub|111~regout $end
$var wire 1 e inst29|sub|106~combout $end
$var wire 1 f inst29|sub|122~regout $end
$var wire 1 g inst12~combout $end
$var wire 1 h ShiftRegisterReset~combout $end
$var wire 1 i inst96 $end
$var wire 1 j inst~regout $end
$var wire 1 k inst1~regout $end
$var wire 1 l inst2~regout $end
$var wire 1 m inst3~regout $end
$var wire 1 n inst15~regout $end
$var wire 1 o inst10~regout $end
$var wire 1 p inst11~regout $end
$var wire 1 q inst9~regout $end
$var wire 1 r inst4~regout $end
$var wire 1 s inst5~regout $end
$var wire 1 t inst6~regout $end
$var wire 1 u inst7~regout $end
$var wire 1 v inst19~regout $end
$var wire 1 w inst17~regout $end
$var wire 1 x inst18~regout $end
$var wire 1 y inst16~regout $end
$var wire 1 z inst25~0 $end
$var wire 1 { inst21 $end
$var wire 1 | inst26 $end
$var wire 1 } inst38~0 $end
$var wire 1 ~ inst42~0_combout $end
$var wire 1 !! inst46~0_combout $end
$var wire 1 "! inst52~0_combout $end
$var wire 1 #! inst58~0 $end
$var wire 1 $! inst61 $end
$var wire 1 %! inst64 $end
$var wire 1 &! inst66~0 $end
$var wire 1 '! inst70~0_combout $end
$var wire 1 (! inst74~0_combout $end
$var wire 1 )! inst80~0_combout $end
$upscope $end
$upscope $end
$enddefinitions $end
#0
$dumpvars
0!
0"
1#
0$
1%
1&
1'
1(
0)
1*
1+
0,
0-
0.
1/
10
11
12
13
14
05
06
07
08
09
0:
x;
0<
0=
0>
0?
0@
0A
0B
0C
1D
xE
1F
1G
1H
0I
0J
0K
0L
1M
0N
0O
0P
0Q
0R
0S
0T
0U
0V
0W
0X
1Y
0Z
0[
0\
0]
0^
0_
0`
1a
0b
0c
0d
0e
0f
0g
0h
xi
0j
0k
0l
0m
0n
0o
0p
0q
0r
0s
0t
0u
0v
0w
0x
0y
1z
1{
1|
1}
1~
1!!
0"!
1#!
1$!
1%!
1&!
1'!
1(!
0)!
$end
#500
1!
1I
1J
1K
1-
#1000
0!
0I
#1500
1!
1I
0J
#2000
0!
0I
#2500
1!
1I
1J
0K
0-
#3000
0!
0I
#3500
1!
1I
0J
#4000
0!
0I
#4500
1!
1I
1J
1K
1-
#5000
0!
0I
#5500
1!
1I
0J
#6000
0!
0I
#6500
1!
1I
1J
0K
0-
#7000
0!
0I
#7500
1!
1I
0J
#8000
0!
0I
#8500
1!
1I
1J
1K
1-
#9000
0!
0I
#9500
1!
1I
0J
#10000
0!
0I
#10500
1!
1I
1J
0K
0-
#11000
0!
0I
#11500
1!
1I
0J
#12000
0!
0I
#12500
1!
1I
1J
1K
1-
#13000
0!
0I
#13500
1!
1I
0J
#14000
0!
0I
#14500
1!
1I
1J
0K
0-
#15000
0!
0I
#15500
1!
1I
0J
#16000
0!
0I
#16500
1!
1I
1J
1K
1-
#17000
0!
0I
#17500
1!
1I
0J
#18000
0!
0I
#18500
1!
1I
1J
0K
0-
#19000
0!
0I
#19500
1!
1I
0J
#20000
0!
0I
#20500
1!
1I
1J
1K
1-
#21000
0!
0I
#21500
1!
1I
0J
#22000
0!
0I
#22500
1!
1I
1J
0K
0-
#23000
0!
0I
#23500
1!
1I
0J
#24000
0!
0I
#24500
1!
1I
1J
1K
1-
#25000
0!
0I
#25500
1!
1I
0J
#26000
0!
0I
#26500
1!
1I
1J
0K
0-
#27000
0!
0I
#27500
1!
1I
0J
#28000
0!
0I
#28500
1!
1I
1J
1K
1-
#29000
0!
0I
#29500
1!
1I
0J
#30000
0!
0I
#30500
1!
1I
1J
0K
0-
#31000
0!
0I
#31500
1!
1I
0J
#32000
0#
0!
0M
0I
0Y
1,
#32500
1!
1I
1J
1K
1-
1Z
1[
#33000
0!
0I
#33500
1!
1I
0J
#34000
0!
0I
#34500
1!
1I
1J
0K
0-
#35000
0!
0I
#35500
1!
1I
0J
#36000
0!
0I
#36500
1!
1I
1J
1K
1-
1\
0Z
#37000
0!
0I
#37500
1!
1I
0J
#38000
0!
0I
#38500
1!
1I
1J
0K
0-
#39000
0!
0I
#39500
1!
1I
0J
#40000
0!
0I
#40500
1!
1I
1J
1K
1-
1Z
1]
0[
#41000
0!
0I
#41500
1!
1I
0J
#42000
0!
0I
#42500
1!
1I
1J
0K
0-
#43000
0!
0I
#43500
1!
1I
0J
#44000
0!
0I
#44500
1!
1I
1J
1K
1-
1^
0\
0Z
0]
18
#45000
0!
0I
#45500
1!
1I
0J
#46000
0!
0I
#46500
1!
1I
1J
0K
0-
#47000
0!
0I
#47500
1!
1I
0J
#48000
0!
0I
#48500
1!
1I
1J
1K
1-
1_
1Z
1`
1[
19
1b
1c
#49000
0!
0I
#49500
1!
1I
0J
#50000
0!
0I
#50500
1!
1I
1J
0K
0`
0-
#51000
0!
0I
#51500
1!
1I
0J
#52000
0!
0I
#52500
1!
1I
1J
1K
1`
1-
1d
0b
1\
0Z
#53000
0!
0I
#53500
1!
1I
0J
#54000
0!
0I
#54500
1!
1I
1J
0K
0`
0-
#55000
0!
0I
#55500
1!
1I
0J
#56000
0!
0I
#56500
1!
1I
1J
1K
1`
1-
1b
1Z
1e
0c
1]
0[
#57000
0!
0I
#57500
1!
1I
0J
#58000
0!
0I
#58500
1!
1I
1J
0K
0`
0-
#59000
0!
0I
#59500
1!
1I
0J
#60000
0!
0I
#60500
1!
1I
1J
1K
1`
1-
1f
0d
0b
0^
0\
0Z
0e
0]
08
#61000
0!
0I
#61500
1!
1I
0J
#62000
0!
0I
#62500
1!
1I
1J
0K
0`
0-
#63000
0!
0I
#63500
1!
1I
0J
#64000
0!
0I
#64500
1!
1I
1J
1K
1`
1-
1b
1Z
1c
1[
#65000
0!
0I
#65500
1!
1I
0J
#66000
0!
0I
#66500
1!
1I
1J
0K
0`
0-
#67000
0!
0I
#67500
1!
1I
0J
#68000
0!
0I
#68500
1!
1I
1J
1K
1`
1-
1d
0b
1\
0Z
#69000
0!
0I
#69500
1!
1I
0J
#70000
0!
0I
#70500
1!
1I
1J
0K
0`
0-
#71000
0!
0I
#71500
1!
1I
0J
#72000
0!
0I
#72500
1!
1I
1J
1K
1`
1-
1b
1Z
1g
1e
0c
1]
0[
0i
0a
1N
1.
0;
1O
xj
1P
#73000
0!
0I
#73500
1!
1I
0J
#74000
0!
0I
#74500
1!
1I
1J
0K
0`
0-
#75000
0!
0I
#75500
1!
1I
0J
#76000
0!
0I
#76500
1!
1I
1J
1K
1`
1-
0f
0d
0b
1^
0\
0Z
0g
0e
0]
18
1a
0N
0.
#77000
0!
0I
#77500
1!
1I
0J
#78000
0!
0I
#78500
1!
1I
1J
0K
0`
0-
#79000
0!
0I
#79500
1!
1I
0J
#80000
0!
0I
#80500
1!
1I
1J
1K
1`
1-
1b
1Z
1c
1[
#81000
0!
0I
#81500
1!
1I
0J
#82000
0!
0I
#82500
1!
1I
1J
0K
0`
0-
#83000
0!
0I
#83500
1!
1I
0J
#84000
0!
0I
#84500
1!
1I
1J
1K
1`
1-
1d
0b
1\
0Z
#85000
0!
0I
#85500
1!
1I
0J
#86000
0!
0I
#86500
1!
1I
1J
0K
0`
0-
#87000
0!
0I
#87500
1!
1I
0J
#88000
0!
0I
#88500
1!
1I
1J
1K
1`
1-
1b
1Z
1e
0c
1]
0[
#89000
0!
0I
#89500
1!
1I
0J
#90000
0!
0I
#90500
1!
1I
1J
0K
0`
0-
#91000
0!
0I
#91500
1!
1I
0J
#92000
0!
0I
#92500
1!
1I
1J
1K
1`
1-
1f
0d
0b
0^
0\
0Z
0e
0]
08
#93000
0!
0I
#93500
1!
1I
0J
#94000
0!
0I
#94500
1!
1I
1J
0K
0`
0-
#95000
0!
0I
#95500
1!
1I
0J
#96000
0!
0I
#96500
1!
1I
1J
1K
1`
1-
1b
1Z
1c
1[
#97000
0!
0I
#97500
1!
1I
0J
#98000
0!
0I
#98500
1!
1I
1J
0K
0`
0-
#99000
0!
0I
#99500
1!
1I
0J
#100000
0!
0I
#100500
1!
1I
1J
1K
1`
1-
1d
0b
1\
0Z
#101000
0!
0I
#101500
1!
1I
0J
#102000
0!
0I
#102500
1!
1I
1J
0K
0`
0-
#103000
0!
0I
#103500
1!
1I
0J
#104000
0!
0I
#104500
1!
1I
1J
1K
1`
1-
1b
1Z
1g
1e
0c
1]
0[
0a
1N
1.
1Q
0O
xk
0j
#105000
0!
0I
#105500
1!
1I
0J
#106000
0!
0I
#106500
1!
1I
1J
0K
0`
0-
#107000
0!
0I
#107500
1!
1I
0J
#108000
0!
0I
#108500
1!
1I
1J
1K
1`
1-
0f
0d
0b
1^
0\
0Z
0g
0e
0]
18
1a
0N
0.
#109000
0!
0I
#109500
1!
1I
0J
#110000
0!
0I
#110500
1!
1I
1J
0K
0`
0-
#111000
0!
0I
#111500
1!
1I
0J
#112000
0!
0I
#112500
1!
1I
1J
1K
1`
1-
1b
1Z
1c
1[
#113000
0!
0I
#113500
1!
1I
0J
#114000
0!
0I
#114500
1!
1I
1J
0K
0`
0-
#115000
0!
0I
#115500
1!
1I
0J
#116000
0!
0I
#116500
1!
1I
1J
1K
1`
1-
1d
0b
1\
0Z
#117000
0!
0I
#117500
1!
1I
0J
#118000
0!
0I
#118500
1!
1I
1J
0K
0`
0-
#119000
0!
0I
#119500
1!
1I
0J
#120000
0!
0I
#120500
1!
1I
1J
1K
1`
1-
1b
1Z
1e
0c
1]
0[
#121000
0!
0I
#121500
1!
1I
0J
#122000
0!
0I
#122500
1!
1I
1J
0K
0`
0-
#123000
0!
0I
#123500
1!
1I
0J
#124000
0!
0I
#124500
1!
1I
1J
1K
1`
1-
1f
0d
0b
0^
0\
0Z
0e
0]
08
#125000
0!
0I
#125500
1!
1I
0J
#126000
0!
0I
#126500
1!
1I
1J
0K
0`
0-
#127000
0!
0I
#127500
1!
1I
0J
#128000
0!
0I
#128500
1!
1I
1J
1K
1`
1-
1b
1Z
1c
1[
#129000
0!
0I
#129500
1!
1I
0J
#130000
0!
0I
#130500
1!
1I
1J
0K
0`
0-
#131000
0!
0I
#131500
1!
1I
0J
#132000
0!
0I
#132500
1!
1I
1J
1K
1`
1-
1d
0b
1\
0Z
#133000
0!
0I
#133500
1!
1I
0J
#134000
0!
0I
#134500
1!
1I
1J
0K
0`
0-
#135000
0!
0I
#135500
1!
1I
0J
#136000
0!
0I
#136500
1!
1I
1J
1K
1`
1-
1b
1Z
1g
1e
0c
1]
0[
0a
1N
1.
1O
xl
0k
1R
0P
1S
#137000
0!
0I
#137500
1!
1I
0J
#138000
0!
0I
#138500
1!
1I
1J
0K
0`
0-
#139000
0!
0I
#139500
1!
1I
0J
#140000
0!
0I
#140500
1!
1I
1J
1K
1`
1-
0f
0d
0b
1^
0\
0Z
0g
0e
0]
18
1a
0N
0.
#141000
0!
0I
#141500
1!
1I
0J
#142000
0!
0I
#142500
1!
1I
1J
0K
0`
0-
#143000
0!
0I
#143500
1!
1I
0J
#144000
0!
0I
#144500
1!
1I
1J
1K
1`
1-
1b
1Z
1c
1[
#145000
0!
0I
#145500
1!
1I
0J
#146000
0!
0I
#146500
1!
1I
1J
0K
0`
0-
#147000
0!
0I
#147500
1!
1I
0J
#148000
0!
0I
#148500
1!
1I
1J
1K
1`
1-
1d
0b
1\
0Z
#149000
0!
0I
#149500
1!
1I
0J
#150000
0!
0I
#150500
1!
1I
1J
0K
0`
0-
#151000
0!
0I
#151500
1!
1I
0J
#152000
0!
0I
#152500
1!
1I
1J
1K
1`
1-
1b
1Z
1e
0c
1]
0[
#153000
0!
0I
#153500
1!
1I
0J
#154000
0!
0I
#154500
1!
1I
1J
0K
0`
0-
#155000
0!
0I
#155500
1!
1I
0J
#156000
0!
0I
#156500
1!
1I
1J
1K
1`
1-
1f
0d
0b
0^
0\
0Z
0e
0]
08
#157000
0!
0I
#157500
1!
1I
0J
#158000
0!
0I
#158500
1!
1I
1J
0K
0`
0-
#159000
0!
0I
#159500
1!
1I
0J
#160000
0!
0I
#160500
1!
1I
1J
1K
1`
1-
1b
1Z
1c
1[
#161000
0!
0I
#161500
1!
1I
0J
#162000
0!
0I
#162500
1!
1I
1J
0K
0`
0-
#163000
0!
0I
#163500
1!
1I
0J
#164000
0!
0I
#164500
1!
1I
1J
1K
1`
1-
1d
0b
1\
0Z
#165000
0!
0I
#165500
1!
1I
0J
#166000
0!
0I
#166500
1!
1I
1J
0K
0`
0-
#167000
0!
0I
#167500
1!
1I
0J
#168000
0!
0I
#168500
1!
1I
1J
1K
1`
1-
1b
1Z
1g
1e
0c
1]
0[
0a
1N
1.
1T
0Q
0O
xm
0l
1U
0S
0R
0U
1S
#169000
0!
0I
#169500
1!
1I
0J
#170000
0!
0I
#170500
1!
1I
1J
0K
0`
0-
#171000
0!
0I
#171500
1!
1I
0J
#172000
0!
0I
#172500
1!
1I
1J
1K
1`
1-
0f
0d
0b
1^
0\
0Z
0g
0e
0]
18
1a
0N
0.
#173000
0!
0I
#173500
1!
1I
0J
#174000
0!
0I
#174500
1!
1I
1J
0K
0`
0-
#175000
0!
0I
#175500
1!
1I
0J
#176000
0!
0I
#176500
1!
1I
1J
1K
1`
1-
1b
1Z
1c
1[
#177000
0!
0I
#177500
1!
1I
0J
#178000
0!
0I
#178500
1!
1I
1J
0K
0`
0-
#179000
0!
0I
#179500
1!
1I
0J
#180000
0!
0I
#180500
1!
1I
1J
1K
1`
1-
1d
0b
1\
0Z
#181000
0!
0I
#181500
1!
1I
0J
#182000
0!
0I
#182500
1!
1I
1J
0K
0`
0-
#183000
0!
0I
#183500
1!
1I
0J
#184000
0!
0I
#184500
1!
1I
1J
1K
1`
1-
1b
1Z
1e
0c
1]
0[
#185000
0!
0I
#185500
1!
1I
0J
#186000
0!
0I
#186500
1!
1I
1J
0K
0`
0-
#187000
0!
0I
#187500
1!
1I
0J
#188000
0!
0I
#188500
1!
1I
1J
1K
1`
1-
1f
0d
0b
0^
0\
0Z
0e
0]
08
#189000
0!
0I
#189500
1!
1I
0J
#190000
0!
0I
#190500
1!
1I
1J
0K
0`
0-
#191000
0!
0I
#191500
1!
1I
0J
#192000
0!
0I
#192500
1!
1I
1J
1K
1`
1-
1b
1Z
1c
1[
#193000
0!
0I
#193500
1!
1I
0J
#194000
0!
0I
#194500
1!
1I
1J
0K
0`
0-
#195000
0!
0I
#195500
1!
1I
0J
#196000
0!
0I
#196500
1!
1I
1J
1K
1`
1-
1d
0b
1\
0Z
#197000
0!
0I
#197500
1!
1I
0J
#198000
0!
0I
#198500
1!
1I
1J
0K
0`
0-
#199000
0!
0I
#199500
1!
1I
0J
#200000
0!
0I
#200500
1!
1I
1J
1K
1`
1-
1b
1Z
1g
1e
0c
1]
0[
0a
1N
1.
1O
xr
0m
1P
#201000
0!
0I
#201500
1!
1I
0J
#202000
0!
0I
#202500
1!
1I
1J
0K
0`
0-
#203000
0!
0I
#203500
1!
1I
0J
#204000
0!
0I
#204500
1!
1I
1J
1K
1`
1-
0f
0d
0b
1^
0\
0Z
0g
0e
0]
18
1a
0N
0.
#205000
0!
0I
#205500
1!
1I
0J
#206000
0!
0I
#206500
1!
1I
1J
0K
0`
0-
#207000
0!
0I
#207500
1!
1I
0J
#208000
0!
0I
#208500
1!
1I
1J
1K
1`
1-
1b
1Z
1c
1[
#209000
0!
0I
#209500
1!
1I
0J
#210000
0!
0I
#210500
1!
1I
1J
0K
0`
0-
#211000
0!
0I
#211500
1!
1I
0J
#212000
0!
0I
#212500
1!
1I
1J
1K
1`
1-
1d
0b
1\
0Z
#213000
0!
0I
#213500
1!
1I
0J
#214000
0!
0I
#214500
1!
1I
1J
0K
0`
0-
#215000
0!
0I
#215500
1!
1I
0J
#216000
0!
0I
#216500
1!
1I
1J
1K
1`
1-
1b
1Z
1e
0c
1]
0[
#217000
0!
0I
#217500
1!
1I
0J
#218000
0!
0I
#218500
1!
1I
1J
0K
0`
0-
#219000
0!
0I
#219500
1!
1I
0J
#220000
0!
0I
#220500
1!
1I
1J
1K
1`
1-
1f
0d
0b
0^
0\
0Z
0e
0]
08
#221000
0!
0I
#221500
1!
1I
0J
#222000
0!
0I
#222500
1!
1I
1J
0K
0`
0-
#223000
0!
0I
#223500
1!
1I
0J
#224000
1#
0!
1M
0I
1Y
0,
#224500
1!
1I
1J
1K
1`
1-
1b
1c
#225000
0!
0I
#225500
1!
1I
0J
#226000
0!
0I
#226500
1!
1I
1J
0K
0`
0-
#227000
0!
0I
#227500
1!
1I
0J
#228000
0!
0I
#228500
1!
1I
1J
1K
1`
1-
1d
0b
#229000
0!
0I
#229500
1!
1I
0J
#230000
0!
0I
#230500
1!
1I
1J
0K
0`
0-
#231000
0!
0I
#231500
1!
1I
0J
#232000
0!
0I
#232500
1!
1I
1J
1K
1`
1-
1b
1g
1e
0c
1i
0a
1N
1.
1;
1Q
0O
xs
0r
#233000
0!
0I
#233500
1!
1I
0J
#234000
0!
0I
#234500
1!
1I
1J
0K
0`
0-
#235000
0!
0I
#235500
1!
1I
0J
#236000
0!
0I
#236500
1!
1I
1J
1K
1`
1-
0f
0d
0b
0g
0e
1a
0N
0.
#237000
0!
0I
#237500
1!
1I
0J
#238000
0!
0I
#238500
1!
1I
1J
0K
0`
0-
#239000
0!
0I
#239500
1!
1I
0J
#240000
0!
0I
#240500
1!
1I
1J
1K
1`
1-
1b
1c
#241000
0!
0I
#241500
1!
1I
0J
#242000
0!
0I
#242500
1!
1I
1J
0K
0`
0-
#243000
0!
0I
#243500
1!
1I
0J
#244000
0!
0I
#244500
1!
1I
1J
1K
1`
1-
1d
0b
#245000
0!
0I
#245500
1!
1I
0J
#246000
0!
0I
#246500
1!
1I
1J
0K
0`
0-
#247000
0!
0I
#247500
1!
1I
0J
#248000
0!
0I
#248500
1!
1I
1J
1K
1`
1-
1b
1e
0c
#249000
0!
0I
#249500
1!
1I
0J
#250000
0!
0I
#250500
1!
1I
1J
0K
0`
0-
#251000
0!
0I
#251500
1!
1I
0J
#252000
0!
0I
#252500
1!
1I
1J
1K
1`
1-
1f
0d
0b
0e
#253000
0!
0I
#253500
1!
1I
0J
#254000
0!
0I
#254500
1!
1I
1J
0K
0`
0-
#255000
0!
0I
#255500
1!
1I
0J
#256000
0!
0I
#256500
1!
1I
1J
1K
1`
1-
1b
1c
#257000
0!
0I
#257500
1!
1I
0J
#258000
0!
0I
#258500
1!
1I
1J
0K
0`
0-
#259000
0!
0I
#259500
1!
1I
0J
#260000
0!
0I
#260500
1!
1I
1J
1K
1`
1-
1d
0b
#261000
0!
0I
#261500
1!
1I
0J
#262000
0!
0I
#262500
1!
1I
1J
0K
0`
0-
#263000
0!
0I
#263500
1!
1I
0J
#264000
0!
0I
#264500
1!
1I
1J
1K
1`
1-
1b
1g
1e
0c
0a
1N
1.
1O
xt
0s
1j
1R
0P
1U
0S
#265000
0!
0I
#265500
1!
1I
0J
#266000
0!
0I
#266500
1!
1I
1J
0K
0`
0-
#267000
0!
0I
#267500
1!
1I
0J
#268000
0!
0I
#268500
1!
1I
1J
1K
1`
1-
0f
0d
0b
0g
0e
1a
0N
0.
#269000
0!
0I
#269500
1!
1I
0J
#270000
0!
0I
#270500
1!
1I
1J
0K
0`
0-
#271000
0!
0I
#271500
1!
1I
0J
#272000
0!
0I
#272500
1!
1I
1J
1K
1`
1-
1b
1c
#273000
0!
0I
#273500
1!
1I
0J
#274000
0!
0I
#274500
1!
1I
1J
0K
0`
0-
#275000
0!
0I
#275500
1!
1I
0J
#276000
0!
0I
#276500
1!
1I
1J
1K
1`
1-
1d
0b
#277000
0!
0I
#277500
1!
1I
0J
#278000
0!
0I
#278500
1!
1I
1J
0K
0`
0-
#279000
0!
0I
#279500
1!
1I
0J
#280000
0!
0I
#280500
1!
1I
1J
1K
1`
1-
1b
1e
0c
#281000
0!
0I
#281500
1!
1I
0J
#282000
0!
0I
#282500
1!
1I
1J
0K
0`
0-
#283000
0!
0I
#283500
1!
1I
0J
#284000
0!
0I
#284500
1!
1I
1J
1K
1`
1-
1f
0d
0b
0e
#285000
0!
0I
#285500
1!
1I
0J
#286000
0!
0I
#286500
1!
1I
1J
0K
0`
0-
#287000
0!
0I
#287500
1!
1I
0J
#288000
0#
0!
0M
0I
0Y
1,
#288500
1!
1I
1J
1K
1`
1-
1b
1Z
1c
1[
#289000
0!
0I
#289500
1!
1I
0J
#290000
0!
0I
#290500
1!
1I
1J
0K
0`
0-
#291000
0!
0I
#291500
1!
1I
0J
#292000
0!
0I
#292500
1!
1I
1J
1K
1`
1-
1d
0b
1\
0Z
#293000
0!
0I
#293500
1!
1I
0J
#294000
0!
0I
#294500
1!
1I
1J
0K
0`
0-
#295000
0!
0I
#295500
1!
1I
0J
#296000
0!
0I
#296500
1!
1I
1J
1K
1`
1-
1b
1Z
1g
1e
0c
1]
0[
0i
0a
1N
1.
0;
1V
0T
0Q
0O
xu
0t
1k
0U
1S
0R
0S
#297000
0!
0I
#297500
1!
1I
0J
#298000
0!
0I
#298500
1!
1I
1J
0K
0`
0-
#299000
0!
0I
#299500
1!
1I
0J
#300000
0!
0I
#300500
1!
1I
1J
1K
1`
1-
0f
0d
0b
1^
0\
0Z
0g
0e
0]
18
1a
0N
0.
#301000
0!
0I
#301500
1!
1I
0J
#302000
0!
0I
#302500
1!
1I
1J
0K
0`
0-
#303000
0!
0I
#303500
1!
1I
0J
#304000
0!
0I
#304500
1!
1I
1J
1K
1`
1-
1b
1Z
1c
1[
#305000
0!
0I
#305500
1!
1I
0J
#306000
0!
0I
#306500
1!
1I
1J
0K
0`
0-
#307000
0!
0I
#307500
1!
1I
0J
#308000
0!
0I
#308500
1!
1I
1J
1K
1`
1-
1d
0b
1\
0Z
#309000
0!
0I
#309500
1!
1I
0J
#310000
0!
0I
#310500
1!
1I
1J
0K
0`
0-
#311000
0!
0I
#311500
1!
1I
0J
#312000
0!
0I
#312500
1!
1I
1J
1K
1`
1-
1b
1Z
1e
0c
1]
0[
#313000
0!
0I
#313500
1!
1I
0J
#314000
0!
0I
#314500
1!
1I
1J
0K
0`
0-
#315000
0!
0I
#315500
1!
1I
0J
#316000
0!
0I
#316500
1!
1I
1J
1K
1`
1-
1f
0d
0b
0^
0\
0Z
0e
0]
08
#317000
0!
0I
#317500
1!
1I
0J
#318000
0!
0I
#318500
1!
1I
1J
0K
0`
0-
#319000
0!
0I
#319500
1!
1I
0J
#320000
1#
0!
1M
0I
1Y
0,
#320500
1!
1I
1J
1K
1`
1-
1b
1c
#321000
0!
0I
#321500
1!
1I
0J
#322000
0!
0I
#322500
1!
1I
1J
0K
0`
0-
#323000
0!
0I
#323500
1!
1I
0J
#324000
0!
0I
#324500
1!
1I
1J
1K
1`
1-
1d
0b
#325000
0!
0I
#325500
1!
1I
0J
#326000
0!
0I
#326500
1!
1I
1J
0K
0`
0-
#327000
0!
0I
#327500
1!
1I
0J
#328000
0!
0I
#328500
1!
1I
1J
1K
1`
1-
1b
1g
1e
0c
1i
0a
1N
1.
1;
1O
0u
1l
0j
1W
1P
0i
1X
17
0;
1)
1p
1o
1)!
0$!
1=
1<
16
0(
#329000
0!
0I
#329500
1!
1I
0J
#330000
0!
0I
#330500
1!
1I
1J
0K
0`
0-
#331000
0!
0I
#331500
1!
1I
0J
#332000
0!
0I
#332500
1!
1I
1J
1K
1`
1-
0f
0d
0b
0_
0g
0e
0`
09
0.
#333000
0!
0I
#333500
1!
1I
0J
#334000
0!
0I
#334500
1!
1I
1J
0K
0N
0-
#335000
0!
0I
#335500
1!
1I
0J
#336000
0!
0I
#336500
1!
1I
1J
1K
1N
1-
0V
0W
1a
0X
0N
07
0)
#337000
0!
0I
#337500
1!
1I
0J
#338000
0!
0I
#338500
1!
1I
1J
0K
0-
#339000
0!
0I
#339500
1!
1I
0J
#340000
0!
0I
#340500
1!
1I
1J
1K
1-
#341000
0!
0I
#341500
1!
1I
0J
#342000
0!
0I
#342500
1!
1I
1J
0K
0-
#343000
0!
0I
#343500
1!
1I
0J
#344000
0!
0I
#344500
1!
1I
1J
1K
1-
#345000
0!
0I
#345500
1!
1I
0J
#346000
0!
0I
#346500
1!
1I
1J
0K
0-
#347000
0!
0I
#347500
1!
1I
0J
#348000
0!
0I
#348500
1!
1I
1J
1K
1-
#349000
0!
0I
#349500
1!
1I
0J
#350000
0!
0I
#350500
1!
1I
1J
0K
0-
#351000
0!
0I
#351500
1!
1I
0J
#352000
0#
0!
0M
0I
0Y
1,
#352500
1!
1I
1J
1K
1-
1Z
1[
#353000
0!
0I
#353500
1!
1I
0J
#354000
0!
0I
#354500
1!
1I
1J
0K
0-
#355000
0!
0I
#355500
1!
1I
0J
#356000
0!
0I
#356500
1!
1I
1J
1K
1-
1\
0Z
#357000
0!
0I
#357500
1!
1I
0J
#358000
0!
0I
#358500
1!
1I
1J
0K
0-
#359000
0!
0I
#359500
1!
1I
0J
#360000
0!
0I
#360500
1!
1I
1J
1K
1-
1Z
1]
0[
#361000
0!
0I
#361500
1!
1I
0J
#362000
0!
0I
#362500
1!
1I
1J
0K
0-
#363000
0!
0I
#363500
1!
1I
0J
#364000
0!
0I
#364500
1!
1I
1J
1K
1-
1^
0\
0Z
0]
18
#365000
0!
0I
#365500
1!
1I
0J
#366000
0!
0I
#366500
1!
1I
1J
0K
0-
#367000
0!
0I
#367500
1!
1I
0J
#368000
0!
0I
#368500
1!
1I
1J
1K
1-
1_
1Z
1`
1[
19
1b
1c
#369000
0!
0I
#369500
1!
1I
0J
#370000
0!
0I
#370500
1!
1I
1J
0K
0`
0-
#371000
0!
0I
#371500
1!
1I
0J
#372000
0!
0I
#372500
1!
1I
1J
1K
1`
1-
1d
0b
1\
0Z
#373000
0!
0I
#373500
1!
1I
0J
#374000
0!
0I
#374500
1!
1I
1J
0K
0`
0-
#375000
0!
0I
#375500
1!
1I
0J
#376000
0!
0I
#376500
1!
1I
1J
1K
1`
1-
1b
1Z
1e
0c
1]
0[
#377000
0!
0I
#377500
1!
1I
0J
#378000
0!
0I
#378500
1!
1I
1J
0K
0`
0-
#379000
0!
0I
#379500
1!
1I
0J
#380000
0!
0I
#380500
1!
1I
1J
1K
1`
1-
1f
0d
0b
0^
0\
0Z
0e
0]
08
#381000
0!
0I
#381500
1!
1I
0J
#382000
0!
0I
#382500
1!
1I
1J
0K
0`
0-
#383000
0!
0I
#383500
1!
1I
0J
#384000
1#
0!
1M
0I
1Y
0,
#384500
1!
1I
1J
1K
1`
1-
1b
1c
#385000
0!
0I
#385500
1!
1I
0J
#386000
0!
0I
#386500
1!
1I
1J
0K
0`
0-
#387000
0!
0I
#387500
1!
1I
0J
#388000
0!
0I
#388500
1!
1I
1J
1K
1`
1-
1d
0b
#389000
0!
0I
#389500
1!
1I
0J
#390000
0!
0I
#390500
1!
1I
1J
0K
0`
0-
#391000
0!
0I
#391500
1!
1I
0J
#392000
0!
0I
#392500
1!
1I
1J
1K
1`
1-
1b
1g
1e
0c
1i
0a
1N
1.
1;
1Q
0O
1m
0k
#393000
0!
0I
#393500
1!
1I
0J
#394000
0!
0I
#394500
1!
1I
1J
0K
0`
0-
#395000
0!
0I
#395500
1!
1I
0J
#396000
0!
0I
#396500
1!
1I
1J
1K
1`
1-
0f
0d
0b
0g
0e
1a
0N
0.
