ControlSystem/simulation/qsim/ControlSystem.msim.vcd
$comment
	File created using the following command:
		vcd file ControlSystem.msim.vcd -direction
$end
$date
	Mon Nov 27 16:20:51 2023
$end
$version
	ModelSim Version 2020.1
$end
$timescale
	1ps
$end

$scope module ControlSystem_vlg_vec_tst $end
$var reg 1 ! Clock $end
$var reg 1 " Reset $end
$var reg 1 # Serial $end
$var wire 1 $ BigReset $end
$var wire 1 % ClockOut $end
$var wire 1 & Count8 $end
$var wire 1 ' LowFor4 $end
$var wire 1 ( LowFor4Latched $end
$var wire 1 ) Select $end
$var wire 1 * SerialOut $end

$scope module i1 $end
$var wire 1 + gnd $end
$var wire 1 , vcc $end
$var wire 1 - unknown $end
$var tri1 1 . devclrn $end
$var tri1 1 / devpor $end
$var tri1 1 0 devoe $end
$var wire 1 1 Serial~combout $end
$var wire 1 2 Clock~combout $end
$var wire 1 3 Reset~combout $end
$var wire 1 4 inst90~combout $end
$var wire 1 5 inst30|sub|34~regout $end
$var wire 1 6 inst30|sub|106~combout $end
$var wire 1 7 inst30|sub|120~combout $end
$var wire 1 8 inst30|sub|122~regout $end
$var wire 1 9 inst30|sub|117~combout $end
$var wire 1 : inst30|sub|134~regout $end
$var wire 1 ; inst37~combout $end
$var wire 1 < inst30|sub|109~combout $end
$var wire 1 = inst30|sub|111~regout $end
$var wire 1 > inst28|sub|126~1_combout $end
$var wire 1 ? inst28|sub|34~regout $end
$var wire 1 @ inst28|sub|109~combout $end
$var wire 1 A inst28|sub|111~regout $end
$var wire 1 B inst28|sub|106~combout $end
$var wire 1 C inst28|sub|122~regout $end
$var wire 1 D inst24~regout $end
$var wire 1 E inst31~combout $end
$var wire 1 F inst29|sub|126~0_combout $end
$var wire 1 G inst29|sub|34~regout $end
$var wire 1 H inst29|sub|109~combout $end
$var wire 1 I inst29|sub|111~regout $end
$var wire 1 J inst29|sub|106~combout $end
$var wire 1 K inst29|sub|120~combout $end
$var wire 1 L inst29|sub|122~regout $end
$var wire 1 M inst29|sub|117~combout $end
$var wire 1 N inst29|sub|134~regout $end
$var wire 1 O inst36~combout $end
$var wire 1 P inst96~combout $end
$upscope $end
$upscope $end
$enddefinitions $end
#0
$dumpvars
0!
0"
1#
0$
0%
0&
0'
0(
0)
x*
0+
1,
x-
1.
1/
10
11
02
03
04
05
06
07
08
09
0:
0;
0<
0=
0>
0?
0@
0A
0B
0C
0D
0E
1F
0G
0H
0I
0J
0K
0L
0M
0N
0O
xP
$end
#2000
1!
12
#4000
0!
02
#6000
1!
12
#8000
0!
02
#10000
1!
12
#12000
0!
02
#14000
1!
12
#16000
0!
02
#18000
1!
12
#20000
0!
02
#22000
1!
12
#24000
0!
02
#26000
1!
12
#28000
0!
02
#30000
1!
12
#32000
0!
02
#34000
1!
12
#36000
0!
02
#38000
1!
12
#40000
0!
02
#42000
1!
12
#44000
0!
02
#46000
1!
12
#48000
0!
02
#50000
1!
12
#52000
0!
02
#54000
1!
12
#56000
0!
02
#58000
1!
12
#60000
0!
02
#62000
1!
12
#64000
0!
02
#66000
1!
12
#68000
0!
02
#70000
1!
12
#72000
0!
02
#74000
1!
12
#76000
0!
02
#78000
1!
12
#80000
0!
02
#82000
1!
12
#84000
0!
02
#86000
1!
12
#88000
0!
02
#90000
1!
12
#92000
0!
02
#94000
1!
12
#96000
0!
02
#98000
1!
12
#100000
0!
02
#102000
1!
12
#104000
0!
02
#106000
1!
12
#108000
0!
02
#110000
1!
12
#112000
0!
02
#114000
1!
12
#116000
0!
02
#118000
1!
12
#120000
0!
02
#122000
1!
12
#124000
0!
02
#126000
1!
12
#128000
0!
02
#130000
1!
12
#132000
0!
02
#134000
1!
12
#136000
0!
02
#138000
1!
12
#140000
0!
02
#142000
1!
12
#144000
0!
02
#146000
1!
12
#148000
0!
02
#150000
1!
12
#152000
0!
02
#154000
1!
12
#156000
0!
02
#158000
1!
12
#160000
0#
0!
01
02
1>
#162000
1!
12
1?
1@
#164000
0!
02
#166000
1!
12
1A
0?
#168000
0!
02
#170000
1!
12
1?
1B
0@
#172000
0!
02
#174000
1!
12
1C
0A
0?
0B
1'
#176000
0!
02
#178000
1!
12
1D
1?
1E
1@
1(
1G
1H
#180000
0!
02
0E
#182000
1!
12
1E
1I
0G
1A
0?
#184000
0!
02
0E
#186000
1!
12
1E
1G
1?
1J
0H
1B
0@
1K
#188000
0!
02
0E
#190000
1!
12
1E
1L
0I
0G
0C
0A
0?
1M
0K
0J
0B
0'
0M
1K
#192000
0!
02
0E
#194000
1!
12
1E
1G
1?
1H
1@
#196000
0!
02
0E
#198000
1!
12
1E
1I
0G
1A
0?
#200000
0!
02
0E
#202000
1!
12
1E
1G
1?
1J
0H
1B
0@
1M
0K
#204000
0!
02
0E
#206000
1!
12
1E
1N
0L
0I
0G
1C
0A
0?
0P
0F
1;
0M
1K
0J
0B
1%
1&
1'
0K
0*
15
1<
#208000
0!
02
0E
#210000
1!
12
1E
0N
1?
1F
0;
1@
0%
0&
#212000
0!
02
0E
#214000
1!
12
1E
1G
1A
0?
1H
#216000
0!
02
0E
#218000
1!
12
1E
1I
0G
1?
1B
0@
#220000
0!
02
0E
#222000
1!
12
1E
1G
0C
0A
0?
1J
0H
0B
0'
1K
#224000
0!
02
0E
#226000
1!
12
1E
1L
0I
0G
1?
1M
0K
0J
1@
0M
1K
#228000
0!
02
0E
#230000
1!
12
1E
1G
1A
0?
1H
#232000
0!
02
0E
#234000
1!
12
1E
1I
0G
1?
1B
0@
#236000
0!
02
0E
#238000
1!
12
1E
1G
1C
0A
0?
1J
0H
0B
1'
1M
0K
#240000
0!
02
0E
#242000
1!
12
1E
1N
0L
0I
0G
1?
0F
1;
0M
1K
0J
1@
1%
1&
0K
1=
05
#244000
0!
02
0E
#246000
1!
12
1E
0N
1A
0?
1F
0;
0%
0&
#248000
0!
02
0E
#250000
1!
12
1E
1G
1?
1H
1B
0@
#252000
0!
02
0E
#254000
1!
12
1E
1I
0G
0C
0A
0?
0B
0'
#256000
0!
02
0E
#258000
1!
12
1E
1G
1?
1J
0H
1@
1K
#260000
0!
02
0E
#262000
1!
12
1E
1L
0I
0G
1A
0?
1M
0K
0J
0M
1K
#264000
0!
02
0E
#266000
1!
12
1E
1G
1?
1H
1B
0@
#268000
0!
02
0E
#270000
1!
12
1E
1I
0G
1C
0A
0?
0B
1'
#272000
0!
02
0E
#274000
1!
12
1E
1G
1?
1J
0H
1@
1M
0K
#276000
0!
02
0E
#278000
1!
12
1E
1N
0L
0I
0G
1A
0?
0F
1;
0M
1K
0J
1%
1&
0K
15
0<
16
17
#280000
0!
02
0E
#282000
1!
12
1E
0N
1?
1F
0;
1B
0@
0%
0&
#284000
0!
02
0E
#286000
1!
12
1E
1G
0C
0A
0?
1H
0B
0'
#288000
0!
02
0E
#290000
1!
12
1E
1I
0G
1?
1@
#292000
0!
02
0E
#294000
1!
12
1E
1G
1A
0?
1J
0H
1K
#296000
0!
02
0E
#298000
1!
12
1E
1L
0I
0G
1?
1M
0K
0J
1B
0@
0M
1K
#300000
0!
02
0E
#302000
1!
12
1E
1G
1C
0A
0?
1H
0B
1'
#304000
0!
02
0E
#306000
1!
12
1E
1I
0G
1?
1@
#308000
0!
02
0E
#310000
1!
12
1E
1G
1A
0?
1J
0H
1M
0K
#312000
0!
02
0E
#314000
1!
12
1E
1N
0L
0I
0G
1?
0F
1;
0M
1K
0J
1B
0@
1%
1&
0K
0=
18
05
06
19
07
09
17
#316000
0!
02
0E
#318000
1!
12
1E
0N
0C
0A
0?
1F
0;
0B
0%
0&
0'
#320000
0!
02
0E
#322000
1!
12
1E
1G
1?
1H
1@
#324000
0!
02
0E
#326000
1!
12
1E
1I
0G
1A
0?
#328000
0!
02
0E
#330000
1!
12
1E
1G
1?
1J
0H
1B
0@
1K
#332000
0!
02
0E
#334000
1!
12
1E
1L
0I
0G
1C
0A
0?
1M
0K
0J
0B
1'
0M
1K
#336000
0!
02
0E
#338000
1!
12
1E
1G
1?
1H
1@
#340000
0!
02
0E
#342000
1!
12
1E
1I
0G
1A
0?
#344000
0!
02
0E
#346000
1!
12
1E
1G
1?
1J
0H
1B
0@
1M
0K
#348000
0!
02
0E
#350000
1!
12
1E
1N
0L
0I
0G
0C
0A
0?
0F
1;
0M
1K
0J
0B
1%
1&
0'
0K
15
1<
#352000
0!
02
0E
#354000
1!
12
1E
0N
1?
1F
0;
1@
0%
0&
#356000
0!
02
0E
#358000
1!
12
1E
1G
1A
0?
1H
#360000
0!
02
0E
#362000
1!
12
1E
1I
0G
1?
1B
0@
#364000
0!
02
0E
#366000
1!
12
1E
1G
1C
0A
0?
1J
0H
0B
1'
1K
#368000
0!
02
0E
#370000
1!
12
1E
1L
0I
0G
1?
1M
0K
0J
1@
0M
1K
#372000
0!
02
0E
#374000
1!
12
1E
1G
1A
0?
1H
#376000
0!
02
0E
#378000
1!
12
1E
1I
0G
1?
1B
0@
#380000
0!
02
0E
#382000
1!
12
1E
1G
0C
0A
0?
1J
0H
0B
0'
1M
0K
#384000
0!
02
0E
#386000
1!
12
1E
1N
0L
0I
0G
1?
0F
1;
0M
1K
0J
1@
1%
1&
0K
1=
05
#388000
0!
02
0E
#390000
1!
12
1E
0N
1A
0?
1F
0;
0%
0&
#392000
0!
02
0E
#394000
1!
12
1E
1G
1?
1H
1B
0@
#396000
0!
02
0E
#398000
1!
12
1E
1I
0G
1C
0A
0?
0B
1'
#400000
0!
02
0E
#402000
1!
12
1E
1G
1?
1J
0H
1@
1K
#404000
0!
02
0E
#406000
1!
12
1E
1L
0I
0G
1A
0?
1M
0K
0J
0M
1K
#408000
0!
02
0E
#410000
1!
12
1E
1G
1?
1H
1B
0@
#412000
0!
02
0E
#414000
1!
12
1E
1I
0G
0C
0A
0?
0B
0'
#416000
0!
02
0E
#418000
1!
12
1E
1G
1?
1J
0H
1@
1M
0K
#420000
0!
02
0E
#422000
1!
12
1E
1N
0L
0I
0G
1A
0?
0F
1;
0M
1K
0J
1%
1&
0K
15
0<
16
19
07
#424000
0!
02
0E
#426000
1!
12
1E
0N
1?
1F
0;
1B
0@
0%
0&
#428000
0!
02
0E
#430000
1!
12
1E
1G
1C
0A
0?
1H
0B
1'
#432000
0!
02
0E
#434000
1!
12
1E
1I
0G
1?
1@
#436000
0!
02
0E
#438000
1!
12
1E
1G
1A
0?
1J
0H
1K
#440000
0!
02
0E
#442000
1!
12
1E
1L
0I
0G
1?
1M
0K
0J
1B
0@
0M
1K
#444000
0!
02
0E
#446000
1!
12
1E
1G
0C
0A
0?
1H
0B
0'
#448000
0!
02
0E
#450000
1!
12
1E
1I
0G
1?
1@
#452000
0!
02
0E
#454000
1!
12
1E
1G
1A
0?
1J
0H
1M
0K
#456000
0!
02
0E
#458000
1!
12
1E
1N
0L
0I
0G
1?
0F
1;
0M
1K
0J
1B
0@
1%
1&
0K
0=
1:
08
05
06
09
17
07
#460000
0!
02
0E
#462000
1!
12
1E
0N
1C
0A
0?
1F
0;
0B
0%
0&
1'
#464000
0!
02
0E
#466000
1!
12
1E
1G
1?
1H
1@
#468000
0!
02
0E
#470000
1!
12
1E
1I
0G
1A
0?
#472000
0!
02
0E
#474000
1!
12
1E
1G
1?
1J
0H
1B
0@
1K
#476000
0!
02
0E
#478000
1!
12
1E
1L
0I
0G
0C
0A
0?
1M
0K
0J
0B
0'
0M
1K
#480000
0!
02
0E
#482000
1!
12
1E
1G
1?
1H
1@
#484000
0!
02
0E
#486000
1!
12
1E
1I
0G
1A
0?
#488000
0!
02
0E
#490000
1!
12
1E
1G
1?
1J
0H
1B
0@
1M
0K
#492000
0!
02
0E
#494000
1!
12
1E
1N
0L
0I
0G
1C
0A
0?
0F
1;
0M
1K
0J
0B
1%
1&
1'
0K
15
1<
#496000
0!
02
0E
#498000
1!
12
1E
0N
1?
1F
0;
1@
0%
0&
#500000
0!
02
0E
#502000
1!
12
1E
1G
1A
0?
1H
#504000
0!
02
0E
#506000
1!
12
1E
1I
0G
1?
1B
0@
#508000
0!
02
0E
#510000
1!
12
1E
1G
0C
0A
0?
1J
0H
0B
0'
1K
#512000
0!
02
0E
#514000
1!
12
1E
1L
0I
0G
1?
1M
0K
0J
1@
0M
1K
#516000
0!
02
0E
#518000
1!
12
1E
1G
1A
0?
1H
#520000
0!
02
0E
#522000
1!
12
1E
1I
0G
1?
1B
0@
#524000
0!
02
0E
#526000
1!
12
1E
1G
1C
0A
0?
1J
0H
0B
1'
1M
0K
#528000
0!
02
0E
#530000
1!
12
1E
1N
0L
0I
0G
1?
0F
1;
0M
1K
0J
1@
1%
1&
0K
1=
05
1O
0>
14
1)
1$
#532000
0!
02
0E
#534000
1!
12
1E
0N
0D
0C
0?
0E
0@
0%
0&
0(
0'
#536000
0!
02
0;
#538000
1!
12
1;
0=
0:
15
0O
1F
1>
0;
04
0)
0$
#540000
0!
02
#542000
1!
12
1?
1@
#544000
0!
02
#546000
1!
12
1A
0?
#548000
0!
02
#550000
1!
12
1?
1B
0@
#552000
0!
02
#554000
1!
12
1C
0A
0?
0B
1'
#556000
0!
02
#558000
1!
12
1D
1?
1E
1@
1(
1G
1H
#560000
0!
02
0E
#562000
1!
12
1E
1I
0G
1A
0?
#564000
0!
02
0E
#566000
1!
12
1E
1G
1?
1J
0H
1B
0@
1K
#568000
0!
02
0E
#570000
1!
12
1E
1L
0I
0G
0C
0A
0?
1M
0K
0J
0B
0'
0M
1K
#572000
0!
02
0E
#574000
1!
12
1E
1G
1?
1H
1@
#576000
0!
02
0E
#578000
1!
12
1E
1I
0G
1A
0?
#580000
0!
02
0E
#582000
1!
12
1E
1G
1?
1J
0H
1B
0@
1M
0K
#584000
0!
02
0E
#586000
1!
12
1E
1N
0L
0I
0G
1C
0A
0?
0F
1;
0M
1K
0J
0B
1%
1&
1'
0K
1=
05
#588000
0!
02
0E
#590000
1!
12
1E
0N
1?
1F
0;
1@
0%
0&
#592000
0!
02
0E
#594000
1!
12
1E
1G
1A
0?
1H
#596000
0!
02
0E
#598000
1!
12
1E
1I
0G
1?
1B
0@
#600000
0!
02
0E
#602000
1!
12
1E
1G
0C
0A
0?
1J
0H
0B
0'
1K
#604000
0!
02
0E
#606000
1!
12
1E
1L
0I
0G
1?
1M
0K
0J
1@
0M
1K
#608000
0!
02
0E
#610000
1!
12
1E
1G
1A
0?
1H
#612000
0!
02
0E
#614000
1!
12
1E
1I
0G
1?
1B
0@
#616000
0!
02
0E
#618000
1!
12
1E
1G
1C
0A
0?
1J
0H
0B
1'
1M
0K
#620000
0!
02
0E
#622000
1!
12
1E
1N
0L
0I
0G
1?
0F
1;
0M
1K
0J
1@
1%
1&
0K
15
0<
16
17
#624000
0!
02
0E
#626000
1!
12
1E
0N
1A
0?
1F
0;
0%
0&
#628000
0!
02
0E
#630000
1!
12
1E
1G
1?
1H
1B
0@
#632000
0!
02
0E
#634000
1!
12
1E
1I
0G
0C
0A
0?
0B
0'
#636000
0!
02
0E
#638000
1!
12
1E
1G
1?
1J
0H
1@
1K
#640000
0!
02
0E
#642000
1!
12
1E
1L
0I
0G
1A
0?
1M
0K
0J
0M
1K
#644000
0!
02
0E
#646000
1!
12
1E
1G
1?
1H
1B
0@
#648000
0!
02
0E
#650000
1!
12
1E
1I
0G
1C
0A
0?
0B
1'
#652000
0!
02
0E
#654000
1!
12
1E
1G
1?
1J
0H
1@
1M
0K
#656000
0!
02
0E
#658000
1!
12
1E
1N
0L
0I
0G
1A
0?
0F
1;
0M
1K
0J
1%
1&
0K
0=
18
05
06
19
07
09
17
#660000
0!
02
0E
#662000
1!
12
1E
0N
1?
1F
0;
1B
0@
0%
0&
#664000
0!
02
0E
#666000
1!
12
1E
1G
0C
0A
0?
1H
0B
0'
#668000
0!
02
0E
#670000
1!
12
1E
1I
0G
1?
1@
#672000
0!
02
0E
#674000
1!
12
1E
1G
1A
0?
1J
0H
1K
#676000
0!
02
0E
#678000
1!
12
1E
1L
0I
0G
1?
1M
0K
0J
1B
0@
0M
1K
#680000
0!
02
0E
#682000
1!
12
1E
1G
1C
0A
0?
1H
0B
1'
#684000
0!
02
0E
#686000
1!
12
1E
1I
0G
1?
1@
#688000
0!
02
0E
#690000
1!
12
1E
1G
1A
0?
1J
0H
1M
0K
#692000
0!
02
0E
#694000
1!
12
1E
1N
0L
0I
0G
1?
0F
1;
0M
1K
0J
1B
0@
1%
1&
0K
15
1<
#696000
0!
02
0E
#698000
1!
12
1E
0N
0C
0A
0?
1F
0;
0B
0%
0&
0'
#700000
0!
02
0E
#702000
1!
12
1E
1G
1?
1H
1@
#704000
0!
02
0E
#706000
1!
12
1E
1I
0G
1A
0?
#708000
0!
02
0E
#710000
1!
12
1E
1G
1?
1J
0H
1B
0@
1K
#712000
0!
02
0E
#714000
1!
12
1E
1L
0I
0G
1C
0A
0?
1M
0K
0J
0B
1'
0M
1K
#716000
0!
02
0E
#718000
1!
12
1E
1G
1?
1H
1@
#720000
0!
02
0E
#722000
1!
12
1E
1I
0G
1A
0?
#724000
0!
02
0E
#726000
1!
12
1E
1G
1?
1J
0H
1B
0@
1M
0K
#728000
0!
02
0E
#730000
1!
12
1E
1N
0L
0I
0G
0C
0A
0?
0F
1;
0M
1K
0J
0B
1%
1&
0'
0K
1=
05
#732000
0!
02
0E
#734000
1!
12
1E
0N
1?
1F
0;
1@
0%
0&
#736000
0!
02
0E
#738000
1!
12
1E
1G
1A
0?
1H
#740000
0!
02
0E
#742000
1!
12
1E
1I
0G
1?
1B
0@
#744000
0!
02
0E
#746000
1!
12
1E
1G
1C
0A
0?
1J
0H
0B
1'
1K
#748000
0!
02
0E
#750000
1!
12
1E
1L
0I
0G
1?
1M
0K
0J
1@
0M
1K
#752000
0!
02
0E
#754000
1!
12
1E
1G
1A
0?
1H
#756000
0!
02
0E
#758000
1!
12
1E
1I
0G
1?
1B
0@
#760000
0!
02
0E
#762000
1!
12
1E
1G
0C
0A
0?
1J
0H
0B
0'
1M
0K
#764000
0!
02
0E
#766000
1!
12
1E
1N
0L
0I
0G
1?
0F
1;
0M
1K
0J
1@
1%
1&
0K
15
0<
16
19
07
#768000
0!
02
0E
#770000
1!
12
1E
0N
1A
0?
1F
0;
0%
0&
#772000
0!
02
0E
#774000
1!
12
1E
1G
1?
1H
1B
0@
#776000
0!
02
0E
#778000
1!
12
1E
1I
0G
1C
0A
0?
0B
1'
#780000
0!
02
0E
#782000
1!
12
1E
1G
1?
1J
0H
1@
1K
#784000
0!
02
0E
#786000
1!
12
1E
1L
0I
0G
1A
0?
1M
0K
0J
0M
1K
#788000
0!
02
0E
#790000
1!
12
1E
1G
1?
1H
1B
0@
#792000
0!
02
0E
#794000
1!
12
1E
1I
0G
0C
0A
0?
0B
0'
#796000
0!
02
0E
#798000
1!
12
1E
1G
1?
1J
0H
1@
1M
0K
#800000
1#
0!
11
02
0>
0E
#802000
1!
12
1E
1N
0L
0I
0G
0?
1P
0F
1;
0M
1K
0J
0@
1%
1&
0K
1*
0=
1:
08
05
06
09
17
07
#804000
0!
02
0E
#806000
1!
12
1E
0N
1F
0;
0%
0&
#808000
0!
02
0E
#810000
1!
12
1E
1G
1H
#812000
0!
02
0E
#814000
1!
12
1E
1I
0G
#816000
0!
02
0E
#818000
1!
12
1E
1G
1J
0H
1K
#820000
0!
02
0E
#822000
1!
12
1E
1L
0I
0G
1M
0K
0J
0M
1K
#824000
0!
02
0E
#826000
1!
12
1E
1G
1H
#828000
0!
02
0E
#830000
1!
12
1E
1I
0G
#832000
0!
02
0E
#834000
1!
12
1E
1G
1J
0H
1M
0K
#836000
0!
02
0E
#838000
1!
12
1E
1N
0L
0I
0G
0F
1;
0M
1K
0J
1%
1&
0K
15
1<
#840000
0!
02
0E
#842000
1!
12
1E
0N
1F
0;
0%
0&
#844000
0!
02
0E
#846000
1!
12
1E
1G
1H
#848000
0!
02
0E
#850000
1!
12
1E
1I
0G
#852000
0!
02
0E
#854000
1!
12
1E
1G
1J
0H
1K
#856000
0!
02
0E
#858000
1!
12
1E
1L
0I
0G
1M
0K
0J
0M
1K
#860000
0!
02
0E
#862000
1!
12
1E
1G
1H
#864000
0!
02
0E
#866000
1!
12
1E
1I
0G
#868000
0!
02
0E
#870000
1!
12
1E
1G
1J
0H
1M
0K
#872000
0!
02
0E
#874000
1!
12
1E
1N
0L
0I
0G
0F
1;
0M
1K
0J
1%
1&
0K
1=
05
1O
14
0P
1)
1$
0*
#876000
0!
02
0E
#878000
1!
12
1E
0N
0D
0E
0%
0&
0(
#880000
0!
02
0;
#882000
1!
12
1;
0=
0:
15
0O
1F
0;
04
0)
0$
#884000
0!
02
#886000
1!
12
#888000
0!
02
#890000
1!
12
#892000
0!
02
#894000
1!
12
#896000
0!
02
#898000
1!
12
#900000
0!
02
#902000
1!
12
#904000
0!
02
#906000
1!
12
#908000
0!
02
#910000
1!
12
#912000
0!
02
#914000
1!
12
#916000
0!
02
#918000
1!
12
#920000
0!
02
#922000
1!
12
#924000
0!
02
#926000
1!
12
#928000
0!
02
#930000
1!
12
#932000
0!
02
#934000
1!
12
#936000
0!
02
#938000
1!
12
#940000
0!
02
#942000
1!
12
#944000
0!
02
#946000
1!
12
#948000
0!
02
#950000
1!
12
#952000
0!
02
#954000
1!
12
#956000
0!
02
#958000
1!
12
#960000
0!
02
#962000
1!
12
#964000
0!
02
#966000
1!
12
#968000
0!
02
#970000
1!
12
#972000
0!
02
#974000
1!
12
#976000
0!
02
#978000
1!
12
#980000
0!
02
#982000
1!
12
#984000
0!
02
#986000
1!
12
#988000
0!
02
#990000
1!
12
#992000
0!
02
#994000
1!
12
#996000
0!
02
#998000
1!
12
