ControlSystem/simulation/qsim/ControlSystem.msim.vcd
$comment
	File created using the following command:
		vcd file ControlSystem.msim.vcd -direction
$end
$date
	Thu Nov  9 14:17:33 2023
$end
$version
	ModelSim Version 2020.1
$end
$timescale
	1ps
$end

$scope module ControlSystem_vlg_vec_tst $end
$var reg 1 ! Clock $end
$var reg 1 " Reset $end
$var reg 1 # Serial $end
$var wire 1 $ HighAfter10 $end
$var wire 1 % pin_name1 $end
$var wire 1 & pin_name2 $end
$var wire 1 ' pin_name3 $end
$var wire 1 ( pin_name4 $end
$var wire 1 ) SerialOut $end

$scope module i1 $end
$var wire 1 * gnd $end
$var wire 1 + vcc $end
$var wire 1 , unknown $end
$var tri1 1 - devclrn $end
$var tri1 1 . devpor $end
$var tri1 1 / devoe $end
$var wire 1 0 Clock~combout $end
$var wire 1 1 Serial~combout $end
$var wire 1 2 inst14~combout $end
$var wire 1 3 inst28|sub|34~regout $end
$var wire 1 4 inst28|sub|109~combout $end
$var wire 1 5 inst28|sub|111~regout $end
$var wire 1 6 inst28|sub|106~combout $end
$var wire 1 7 inst28|sub|122~regout $end
$var wire 1 8 Reset~combout $end
$var wire 1 9 inst31~combout $end
$var wire 1 : inst30|sub|34~regout $end
$var wire 1 ; inst30|sub|109~combout $end
$var wire 1 < inst30|sub|111~regout $end
$var wire 1 = inst29|sub|126~0_combout $end
$var wire 1 > inst29|sub|34~regout $end
$var wire 1 ? inst29|sub|109~combout $end
$var wire 1 @ inst29|sub|111~regout $end
$var wire 1 A inst29|sub|106~combout $end
$var wire 1 B inst29|sub|120~combout $end
$var wire 1 C inst29|sub|122~regout $end
$var wire 1 D inst29|sub|117~combout $end
$var wire 1 E inst29|sub|134~regout $end
$var wire 1 F inst30|sub|106~combout $end
$var wire 1 G inst30|sub|120~combout $end
$var wire 1 H inst30|sub|122~regout $end
$var wire 1 I inst30|sub|117~combout $end
$var wire 1 J inst30|sub|134~regout $end
$var wire 1 K inst37~combout $end
$var wire 1 L inst24~regout $end
$var wire 1 M inst35~combout $end
$var wire 1 N inst36~combout $end
$upscope $end
$upscope $end
$enddefinitions $end
#0
$dumpvars
0!
0"
1#
0$
0%
0&
0'
0(
x)
0*
1+
x,
1-
1.
1/
00
11
12
03
04
05
06
07
08
09
0:
0;
0<
1=
0>
0?
0@
0A
0B
0C
0D
0E
0F
0G
0H
0I
0J
1K
0L
xM
0N
$end
#5000
1!
10
#10000
0!
00
#15000
1!
10
#20000
0!
00
#25000
1!
10
#30000
0!
00
#35000
1!
10
#40000
0!
00
#45000
1!
10
#50000
0!
00
#55000
1!
10
#60000
0!
00
#65000
1!
10
#70000
0!
00
#75000
1!
10
#80000
0!
00
#85000
1!
10
#90000
0!
00
#95000
1!
10
#100000
0!
00
#105000
1!
10
#110000
0!
00
#115000
1!
10
#120000
0!
00
#125000
1!
10
#130000
0!
00
#135000
1!
10
#140000
0!
00
#145000
1!
10
#150000
0!
00
#155000
1!
10
#160000
0!
00
#165000
1!
10
#170000
0!
00
#175000
1!
10
#180000
0!
00
#185000
1!
10
#190000
0!
00
#195000
1!
10
#200000
0!
00
#205000
1!
10
#210000
0!
00
#215000
1!
10
#220000
0!
00
#225000
1!
10
#230000
0!
00
#235000
1!
10
#240000
0!
00
#245000
1!
10
#250000
0!
00
#255000
1!
10
#260000
0!
00
#265000
1!
10
#270000
0!
00
#275000
1!
10
#280000
0!
00
#285000
1!
10
#290000
0!
00
#295000
1!
10
#300000
0!
00
#305000
1!
10
#310000
0!
00
#315000
1!
10
#320000
0#
0!
01
00
#325000
1!
10
02
#330000
0!
00
12
13
14
#335000
1!
10
02
#340000
0!
00
12
15
03
#345000
1!
10
02
#350000
0!
00
12
13
16
04
#355000
1!
10
02
#360000
0!
00
12
17
05
03
06
1'
#365000
1!
10
02
1L
19
1%
1>
1?
#370000
0!
00
09
12
13
14
#375000
1!
10
19
02
1@
0>
#380000
0!
00
09
12
15
03
#385000
1!
10
19
02
1>
1A
0?
1B
#390000
0!
00
09
12
13
16
04
#395000
1!
10
19
02
1C
0@
0>
1D
0B
0A
0D
1B
#400000
0!
00
09
12
07
05
03
06
0'
#405000
1!
10
19
02
1>
1?
#410000
0!
00
09
12
13
14
#415000
1!
10
19
02
1@
0>
#420000
0!
00
09
12
15
03
#425000
1!
10
19
02
1>
1A
0?
1D
0B
#430000
0!
00
09
12
13
16
04
#435000
1!
10
19
02
1E
0C
0@
0>
0M
0=
0D
1B
0A
1&
0B
0)
1:
1;
1(
#440000
0!
00
09
12
17
05
03
06
1'
#445000
1!
10
19
02
0E
1=
0&
#450000
0!
00
09
12
13
14
#455000
1!
10
19
02
1>
1?
#460000
0!
00
09
12
15
03
#465000
1!
10
19
02
1@
0>
#470000
0!
00
09
12
13
16
04
#475000
1!
10
19
02
1>
1A
0?
1B
#480000
0!
00
09
12
07
05
03
06
0'
#485000
1!
10
19
02
1C
0@
0>
1D
0B
0A
0D
1B
#490000
0!
00
09
12
13
14
#495000
1!
10
19
02
1>
1?
#500000
0!
00
09
12
15
03
#505000
1!
10
19
02
1@
0>
#510000
0!
00
09
12
13
16
04
#515000
1!
10
19
02
1>
1A
0?
1D
0B
#520000
0!
00
09
12
17
05
03
06
1'
#525000
1!
10
19
02
1E
0C
0@
0>
0=
0D
1B
0A
1&
0B
1<
0:
0(
#530000
0!
00
09
12
13
14
#535000
1!
10
19
02
0E
1=
0&
#540000
0!
00
09
12
15
03
#545000
1!
10
19
02
1>
1?
#550000
0!
00
09
12
13
16
04
#555000
1!
10
19
02
1@
0>
#560000
0!
00
09
12
07
05
03
06
0'
#565000
1!
10
19
02
1>
1A
0?
1B
#570000
0!
00
09
12
13
14
#575000
1!
10
19
02
1C
0@
0>
1D
0B
0A
0D
1B
#580000
0!
00
09
12
15
03
#585000
1!
10
19
02
1>
1?
#590000
0!
00
09
12
13
16
04
#595000
1!
10
19
02
1@
0>
#600000
0!
00
09
12
17
05
03
06
1'
#605000
1!
10
19
02
1>
1A
0?
1D
0B
#610000
0!
00
09
12
13
14
#615000
1!
10
19
02
1E
0C
0@
0>
0=
0D
1B
0A
1&
0B
1:
1F
0;
1(
1G
#620000
0!
00
09
12
15
03
#625000
1!
10
19
02
0E
1=
0&
#630000
0!
00
09
12
13
16
04
#635000
1!
10
19
02
1>
1?
#640000
1#
0!
11
00
12
09
07
05
03
06
0'
#645000
1!
10
19
1@
0>
#650000
0!
00
09
#655000
1!
10
19
1>
1A
0?
1B
#660000
0!
00
09
#665000
1!
10
19
1C
0@
0>
1D
0B
0A
0D
1B
#670000
0!
00
09
#675000
1!
10
19
1>
1?
#680000
0!
00
09
#685000
1!
10
19
1@
0>
#690000
0!
00
09
#695000
1!
10
19
1>
1A
0?
1D
0B
#700000
0!
00
09
#705000
1!
10
19
1E
0C
0@
0>
1M
0=
0D
1B
0A
1&
0B
1)
1H
0<
0:
1I
0G
0F
0(
0I
1G
#710000
0!
00
09
#715000
1!
10
19
0E
1=
0&
#720000
0!
00
09
#725000
1!
10
19
1>
1?
#730000
0!
00
09
#735000
1!
10
19
1@
0>
#740000
0!
00
09
#745000
1!
10
19
1>
1A
0?
1B
#750000
0!
00
09
#755000
1!
10
19
1C
0@
0>
1D
0B
0A
0D
1B
#760000
0!
00
09
#765000
1!
10
19
1>
1?
#770000
0!
00
09
#775000
1!
10
19
1@
0>
#780000
0!
00
09
#785000
1!
10
19
1>
1A
0?
1D
0B
#790000
0!
00
09
#795000
1!
10
19
1E
0C
0@
0>
0=
0D
1B
0A
1&
0B
1:
1;
1(
#800000
0!
00
09
#805000
1!
10
19
0E
1=
0&
#810000
0!
00
09
#815000
1!
10
19
1>
1?
#820000
0!
00
09
#825000
1!
10
19
1@
0>
#830000
0!
00
09
#835000
1!
10
19
1>
1A
0?
1B
#840000
0!
00
09
#845000
1!
10
19
1C
0@
0>
1D
0B
0A
0D
1B
#850000
0!
00
09
#855000
1!
10
19
1>
1?
#860000
0!
00
09
#865000
1!
10
19
1@
0>
#870000
0!
00
09
#875000
1!
10
19
1>
1A
0?
1D
0B
#880000
0!
00
09
#885000
1!
10
19
1E
0C
0@
0>
0=
0D
1B
0A
1&
0B
1<
0:
0(
#890000
0!
00
09
#895000
1!
10
19
0E
1=
0&
#900000
0!
00
09
#905000
1!
10
19
1>
1?
#910000
0!
00
09
#915000
1!
10
19
1@
0>
#920000
0!
00
09
#925000
1!
10
19
1>
1A
0?
1B
#930000
0!
00
09
#935000
1!
10
19
1C
0@
0>
1D
0B
0A
0D
1B
#940000
0!
00
09
#945000
1!
10
19
1>
1?
#950000
0!
00
09
#955000
1!
10
19
1@
0>
#960000
0#
0!
01
00
09
#965000
1!
10
19
02
1>
1A
0?
1D
0B
#970000
0!
00
09
12
13
14
#975000
1!
10
19
02
1E
0C
0@
0>
0M
0=
0D
1B
0A
1&
0B
0)
1:
1F
0;
1(
1I
0G
#980000
0!
00
09
12
15
03
#985000
1!
10
19
02
0E
1=
0&
#990000
0!
00
09
12
13
16
04
#995000
1!
10
19
02
1>
1?
