ClockDivider/simulation/qsim/ClockDivider.msim.vcd
$comment
	File created using the following command:
		vcd file ClockDivider.msim.vcd -direction
$end
$date
	Thu Nov  9 10:05:01 2023
$end
$version
	ModelSim Version 2020.1
$end
$timescale
	1ps
$end

$scope module ClockDivider_vlg_vec_tst $end
$var reg 1 ! pin_name1 $end
$var wire 1 " pin_name2 $end
$var wire 1 # pin_name3 $end

$scope module i1 $end
$var wire 1 $ gnd $end
$var wire 1 % vcc $end
$var wire 1 & unknown $end
$var tri1 1 ' devclrn $end
$var tri1 1 ( devpor $end
$var tri1 1 ) devoe $end
$var wire 1 * pin_name1~combout $end
$var wire 1 + inst~regout $end
$var wire 1 , inst1~regout $end
$upscope $end
$upscope $end
$enddefinitions $end
#0
$dumpvars
0!
0"
0#
0$
1%
x&
1'
1(
1)
0*
0+
0,
$end
#32000
1!
1*
1+
1#
1,
1"
#40000
0!
0*
#72000
1!
1*
0+
0#
#80000
0!
0*
#112000
1!
1*
1+
1#
0,
0"
#120000
0!
0*
#152000
1!
1*
0+
0#
#160000
0!
0*
#192000
1!
1*
1+
1#
1,
1"
#200000
0!
0*
#232000
1!
1*
0+
0#
#240000
0!
0*
#272000
1!
1*
1+
1#
0,
0"
#280000
0!
0*
#312000
1!
1*
0+
0#
#320000
0!
0*
#352000
1!
1*
1+
1#
1,
1"
#360000
0!
0*
#392000
1!
1*
0+
0#
#400000
0!
0*
#432000
1!
1*
1+
1#
0,
0"
#440000
0!
0*
#472000
1!
1*
0+
0#
#480000
0!
0*
#512000
1!
1*
1+
1#
1,
1"
#520000
0!
0*
#552000
1!
1*
0+
0#
#560000
0!
0*
#592000
1!
1*
1+
1#
0,
0"
#600000
0!
0*
#632000
1!
1*
0+
0#
#640000
0!
0*
#672000
1!
1*
1+
1#
1,
1"
#680000
0!
0*
#712000
1!
1*
0+
0#
#720000
0!
0*
#752000
1!
1*
1+
1#
0,
0"
#760000
0!
0*
#792000
1!
1*
0+
0#
#800000
0!
0*
#832000
1!
1*
1+
1#
1,
1"
#840000
0!
0*
#872000
1!
1*
0+
0#
#880000
0!
0*
#912000
1!
1*
1+
1#
0,
0"
#920000
0!
0*
#952000
1!
1*
0+
0#
#960000
0!
0*
#992000
1!
1*
1+
1#
1,
1"
